<?xml version="1.0" standalone="no"?>
<!DOCTYPE svg PUBLIC "-//W3C//DTD SVG 1.1//EN" "http://www.w3.org/Graphics/SVG/1.1/DTD/svg11.dtd" >
<svg>
<metadata>
Created by FontForge 20110222 at Wed Sep 18 00:20:48 2013
 By Orthosie Webhosting
Digitized data copyright (C) 1992 - 1997 The Monotype Corporation.  Rockwell is a trademark of The Monotype Corporation which may be registered in certain jurisdictions. Portions copyright Microsoft  Corporation.  All rights reserved.
</metadata>
<defs>
<font id="RockwellRegular" horiz-adv-x="1174" >
  <font-face 
    font-family="RockwellRegular"
    font-weight="400"
    font-stretch="normal"
    units-per-em="2048"
    panose-1="2 6 6 3 2 2 5 2 4 3"
    ascent="1638"
    descent="-410"
    x-height="968"
    cap-height="1391"
    bbox="-303 -560 2165 1869"
    underline-thickness="102"
    underline-position="-109"
    unicode-range="U+0020-F002"
  />
<missing-glyph horiz-adv-x="1536" 
d="M256 0v1280h1024v-1280h-1024zM288 32h960v1216h-960v-1216z" />
    <glyph glyph-name=".notdef" horiz-adv-x="1536" 
d="M256 0v1280h1024v-1280h-1024zM288 32h960v1216h-960v-1216z" />
    <glyph glyph-name=".null" horiz-adv-x="0" 
 />
    <glyph glyph-name="nonmarkingreturn" horiz-adv-x="512" 
 />
    <glyph glyph-name="space" unicode=" " horiz-adv-x="512" 
 />
    <glyph glyph-name="exclam" unicode="!" horiz-adv-x="598" 
d="M349 377h-102l-50 591v423h202v-423zM176 0v246h246v-246h-246z" />
    <glyph glyph-name="quotedbl" unicode="&#x22;" horiz-adv-x="831" 
d="M209 829l-55 296q-22 121 -22 165q0 123 97 123q44 0 73.5 -29.5t29.5 -77.5q0 -42 -26 -183l-54 -294h-43zM575 829l-54 291q-24 128 -24 171q0 122 102 122q45 0 72.5 -30.5t27.5 -75.5q0 -87 -19 -186l-57 -292h-48z" />
    <glyph glyph-name="numbersign" unicode="#" horiz-adv-x="1366" 
d="M552 1019h396l81 391h147l-81 -391h185v-147h-216l-73 -353h289v-147h-320l-81 -391h-147l81 391h-396l-81 -391h-147l81 391h-185v147h216l73 353h-289v147h320l81 391h147zM521 872l-73 -353h396l73 353h-396z" />
    <glyph glyph-name="dollar" unicode="$" horiz-adv-x="1110" 
d="M471 -20q-186 8 -297 125.5t-111 286.5q0 9 1 28h182q15 -250 225 -278v460q-381 75 -381 386q0 166 101.5 272t279.5 121v63h151v-63q132 -13 235.5 -102t103.5 -314v-24h-176q0 128 -38 190.5t-125 82.5v-444q240 -45 321 -138.5t81 -236.5q0 -182 -105 -288.5
t-297 -126.5v-155h-151v155zM471 804v418q-181 -32 -181 -205q0 -164 181 -213zM622 570v-426q210 39 210 223q0 75 -41 126t-169 77z" />
    <glyph glyph-name="percent" unicode="%" horiz-adv-x="1985" 
d="M164 1040q0 167 75 270t222 103q137 0 217 -97t80 -276q0 -170 -76.5 -271t-220.5 -101q-137 0 -217 96.5t-80 275.5zM308 1041q0 -277 153 -277q152 0 152 276q0 277 -152 277q-153 0 -153 -276zM367 0l1104 1391h142l-1096 -1391h-150zM1226 351q0 180 80.5 276
t215.5 96q149 0 223 -103.5t74 -268.5q0 -180 -80 -276.5t-216 -96.5q-137 0 -217 96.5t-80 276.5zM1370 351q0 -277 152 -277q153 0 153 276q0 277 -152 277q-153 0 -153 -276z" />
    <glyph glyph-name="ampersand" unicode="&#x26;" horiz-adv-x="1386" 
d="M1055 736h285v-170h-147q-54 -193 -138 -298l73 -94h212v-174h-317l-92 122q-181 -144 -370 -144q-216 0 -357 134t-141 335q0 278 317 417q-95 121 -95 243q0 134 101.5 220t236.5 86q140 0 236.5 -85.5t96.5 -212.5q0 -111 -68 -182t-224 -135l283 -383q76 133 108 321
zM564 930q120 50 163.5 94t43.5 97q0 49 -37 88.5t-107 39.5q-63 0 -105 -38t-42 -99q0 -54 72 -164zM486 736q-216 -96 -216 -280q0 -122 91 -213.5t221 -91.5q133 0 242 111z" />
    <glyph glyph-name="quotesingle" unicode="'" horiz-adv-x="362" 
d="M158 828l-54 296q-23 124 -23 160q0 129 97 129q48 0 76 -31t28 -75q0 -40 -26 -184l-54 -295h-44z" />
    <glyph glyph-name="parenleft" unicode="(" horiz-adv-x="768" 
d="M711 1416v-155q-108 -57 -195.5 -178.5t-117 -255.5t-29.5 -342q0 -234 38 -373t120.5 -239.5t183.5 -161.5v-156q-208 85 -376.5 323.5t-168.5 608.5q0 329 147.5 576t397.5 353z" />
    <glyph glyph-name="parenright" unicode=")" horiz-adv-x="768" 
d="M57 1416q242 -108 393.5 -346t151.5 -584q0 -334 -140.5 -566t-404.5 -365v156q124 75 204.5 190t109 247.5t28.5 336.5q0 216 -31.5 351t-121 253t-189.5 172v155z" />
    <glyph glyph-name="asterisk" unicode="*" horiz-adv-x="1067" 
d="M622 1413v-169q-60 -123 -62 -247q134 48 215 136l167 53l55 -177l-164 -55q-33 6 -61 6q-108 0 -184 -22q95 -119 187 -158l101 -140l-148 -107l-106 141q-13 126 -90 231q-77 -105 -90 -231l-106 -141l-148 107l101 140q92 39 187 158q-76 22 -184 22q-27 0 -61 -6
l-164 55l55 177l167 -53q81 -88 215 -136q-2 124 -62 247v169h180z" />
    <glyph glyph-name="plus" unicode="+" horiz-adv-x="1366" 
d="M135 774h470v469h156v-469h470v-157h-470v-469h-156v469h-470v157z" />
    <glyph glyph-name="comma" unicode="," horiz-adv-x="598" 
d="M176 0v246h246v-214q0 -109 -17 -169t-72.5 -98.5t-156.5 -41.5v104q120 18 120 149q0 8 -1 24h-119z" />
    <glyph glyph-name="hyphen" unicode="-" horiz-adv-x="725" 
d="M63 575h600v-190h-600v190z" />
    <glyph glyph-name="hyphen" unicode="&#xad;" horiz-adv-x="725" 
d="M63 575h600v-190h-600v190z" />
    <glyph glyph-name="period" unicode="." horiz-adv-x="598" 
d="M176 0v246h246v-246h-246z" />
    <glyph glyph-name="slash" unicode="/" horiz-adv-x="897" 
d="M720 1419h166l-710 -1441h-166z" />
    <glyph glyph-name="zero" unicode="0" horiz-adv-x="1110" 
d="M72 695q0 344 129.5 531t353.5 187q232 0 357 -194t125 -524q0 -342 -129 -529.5t-353 -187.5q-234 0 -358.5 195t-124.5 522zM276 695q0 -298 72 -426.5t207 -128.5t207 129t72 426q0 302 -73 429t-206 127q-150 0 -214.5 -144.5t-64.5 -411.5z" />
    <glyph glyph-name="one" unicode="1" horiz-adv-x="1110" 
d="M485 169v1053h-190v167h380v-1220h181v-169h-561v169h190z" />
    <glyph glyph-name="two" unicode="2" horiz-adv-x="1110" 
d="M984 497l-13 -497h-889q0 144 51.5 275t145 229t285.5 238q121 89 164 148.5t43 138.5q0 97 -61 158.5t-168 61.5q-125 0 -183 -70t-58 -230q0 -40 2 -76h-185q-1 36 -1 59q0 226 107 353.5t314 127.5q209 0 320.5 -109t111.5 -268q0 -133 -73 -227t-279 -239
q-200 -142 -262.5 -231t-72.5 -158h524l8 316h169z" />
    <glyph glyph-name="three" unicode="3" horiz-adv-x="1110" 
d="M419 640v172q146 0 212.5 17t103.5 67.5t37 127.5q0 93 -54.5 160t-161.5 67q-118 0 -172 -70.5t-59 -210.5h-193q0 240 118.5 341.5t290.5 101.5q209 0 315 -103t106 -263q0 -118 -60.5 -199t-136.5 -115q260 -77 260 -332q0 -212 -142.5 -317.5t-334.5 -105.5
q-245 0 -362.5 131t-117.5 362h184q5 -160 87.5 -244.5t219.5 -84.5q125 0 196.5 69.5t71.5 175.5q0 111 -84 182.5t-268 71.5q-24 0 -56 -1z" />
    <glyph glyph-name="four" unicode="4" horiz-adv-x="1110" 
d="M617 374h-468q-24 93 -89 157l579 871h161v-860h222v-168h-222v-205h127v-169h-458v169h148v205zM617 542v548l-365 -548h365z" />
    <glyph glyph-name="five" unicode="5" horiz-adv-x="1110" 
d="M73 444h180q16 -140 91.5 -223t199.5 -83q125 0 201 86t76 221q0 143 -74 218.5t-184 75.5q-165 0 -279 -167q-64 63 -145 101l57 716h742v-369h-172v190h-426l-31 -407q127 103 283 103q198 0 312.5 -132t114.5 -327q0 -206 -125.5 -337.5t-351.5 -131.5
q-210 0 -332 119t-137 347z" />
    <glyph glyph-name="six" unicode="6" horiz-adv-x="1110" 
d="M986 980h-169q-15 119 -83.5 194t-166.5 75q-133 0 -207 -138.5t-77 -379.5q142 154 327 154q159 0 272.5 -117.5t113.5 -314.5q0 -196 -112 -335.5t-306 -139.5q-217 0 -347.5 178.5t-130.5 530.5q0 335 126 530.5t363 195.5q186 0 288.5 -122.5t108.5 -310.5zM293 521
q45 -378 276 -378q118 0 184 87t66 208q0 119 -62.5 192t-168.5 73q-149 0 -295 -182z" />
    <glyph glyph-name="seven" unicode="7" horiz-adv-x="1110" 
d="M223 0v169h185q15 269 125 563t239 478h-479v-187h-172v366h869v-142q-136 -163 -258 -494.5t-122 -583.5h162v-169h-549z" />
    <glyph glyph-name="eight" unicode="8" horiz-adv-x="1110" 
d="M315 727q-204 119 -204 321q0 177 127 271t305 94q210 0 332 -98t122 -267q0 -200 -204 -321q247 -97 247 -344q0 -184 -128.5 -294.5t-346.5 -110.5q-245 0 -371 110.5t-126 294.5q0 247 247 344zM299 1030q0 -110 70 -167.5t191 -57.5q103 0 176 55.5t73 169.5
q0 218 -261 218q-113 0 -181 -56t-68 -162zM270 391q0 -110 76 -180.5t208 -70.5q125 0 204.5 68t79.5 184q0 111 -74.5 181t-215.5 70q-122 0 -200 -67t-78 -185z" />
    <glyph glyph-name="nine" unicode="9" horiz-adv-x="1110" 
d="M104 411h169q15 -119 84 -194t166 -75q134 0 208 139t76 379q-141 -154 -326 -154q-165 0 -276 119t-111 313q0 196 112 335.5t307 139.5q217 0 347 -178.5t130 -530.5q0 -335 -125.5 -530.5t-363.5 -195.5q-185 0 -288 122.5t-109 310.5zM797 870q-43 378 -276 378
q-115 0 -182.5 -85.5t-67.5 -209.5q0 -113 59.5 -189t172.5 -76q148 0 294 182z" />
    <glyph glyph-name="colon" unicode=":" horiz-adv-x="598" 
d="M176 722v246h246v-246h-246zM176 0v246h246v-246h-246z" />
    <glyph glyph-name="semicolon" unicode=";" horiz-adv-x="598" 
d="M176 722v246h246v-246h-246zM176 0v246h246v-214q0 -109 -17 -169t-72.5 -98.5t-156.5 -41.5v104q120 18 120 149q0 8 -1 24h-119z" />
    <glyph glyph-name="less" unicode="&#x3c;" horiz-adv-x="1366" 
d="M1231 165l-1096 460v141l1096 460v-170l-882 -361l882 -360v-170z" />
    <glyph glyph-name="equal" unicode="=" horiz-adv-x="1366" 
d="M135 1009h1096v-157h-1096v157zM135 539h1096v-157h-1096v157z" />
    <glyph glyph-name="greater" unicode="&#x3e;" horiz-adv-x="1366" 
d="M135 1226l1096 -460v-141l-1096 -460v170l882 360l-882 361v170z" />
    <glyph glyph-name="question" unicode="?" horiz-adv-x="961" 
d="M486 375h-103l-24 442q47 -12 94 -12q131 0 189 66t58 157q0 106 -62.5 164.5t-158.5 58.5q-117 0 -173.5 -67t-56.5 -167q0 -21 1 -49h-187q-1 27 -1 46q0 205 121.5 302t289.5 97q202 0 313 -108.5t111 -285.5q0 -171 -105.5 -273t-248.5 -102q-11 0 -32 1zM311 0v246
h245v-246h-245z" />
    <glyph glyph-name="at" unicode="@" horiz-adv-x="2068" 
d="M1164 138q-145 -166 -307 -166q-147 0 -254.5 123.5t-107.5 324.5q0 237 159 437.5t360 200.5q190 0 302 -183l34 155h179l-144 -672q-30 -139 -30 -155q0 -29 22 -47.5t46 -18.5q53 0 150.5 67.5t167.5 201.5t70 285q0 274 -206.5 452.5t-508.5 178.5
q-370 0 -602 -250.5t-232 -609.5q0 -372 230 -571t631 -199q235 0 419.5 79t284.5 223h181q-83 -172 -310 -311t-572 -139q-484 0 -748 245.5t-264 653.5q0 410 260 717t731 307q384 0 619 -227.5t235 -552.5q0 -277 -188 -496.5t-415 -219.5q-100 0 -142 41t-50 126z
M680 403q0 -125 63 -204t150 -79q137 0 251.5 152.5t114.5 351.5q0 133 -66.5 209.5t-165.5 76.5q-152 0 -249.5 -167t-97.5 -340z" />
    <glyph glyph-name="A" unicode="A" horiz-adv-x="1430" 
d="M970 489h-500l-107 -315h169v-174h-548v174h168l380 1060h-169v157h711v-157h-173l389 -1060h156v-174h-545v174h173zM918 652l-185 582h-19l-192 -582h396z" />
    <glyph glyph-name="B" unicode="B" horiz-adv-x="1194" 
d="M217 174v1043h-171v174h463q191 0 286.5 -23t168.5 -116.5t73 -219.5q0 -97 -43.5 -175t-127.5 -118q116 -40 178.5 -132.5t62.5 -211.5q0 -103 -46.5 -187t-123.5 -130t-168.5 -62t-249.5 -16h-473v174h171zM427 812h131q150 0 209.5 52.5t59.5 154.5q0 198 -269 198
h-131v-405zM427 174h79q155 0 227 15.5t117.5 73t45.5 147.5q0 82 -43.5 137.5t-112 74t-193.5 18.5h-120v-466z" />
    <glyph glyph-name="C" unicode="C" horiz-adv-x="1556" 
d="M1277 566l181 -101q-61 -232 -246.5 -359.5t-426.5 -127.5q-316 0 -507 205t-191 507q0 331 192 527t501 196q273 0 459 -149v127h180v-447h-180q-60 136 -185 210.5t-263 74.5q-208 0 -341.5 -150t-133.5 -379q0 -235 143 -384t339 -149q161 0 293 103.5t186 295.5z" />
    <glyph glyph-name="D" unicode="D" horiz-adv-x="1493" 
d="M215 174v1043h-189v174h538q223 0 343.5 -23t233.5 -104t180.5 -222.5t67.5 -322.5q0 -206 -65 -358t-170.5 -227t-251 -104.5t-370.5 -29.5h-506v174h189zM425 174h110q184 0 291.5 23t181.5 78.5t120 167.5t46 264q0 181 -75.5 307t-193 164.5t-361.5 38.5h-119v-1043z
" />
    <glyph glyph-name="E" unicode="E" horiz-adv-x="1280" 
d="M236 174v1043h-180v174h1156v-419h-172v245h-594v-414h517v-174h-517v-455h594v253h172v-427h-1156v174h180z" />
    <glyph glyph-name="F" unicode="F" horiz-adv-x="1130" 
d="M213 174v1043h-176v174h1079v-419h-172v245h-521v-412h449v-174h-449v-457h178v-174h-564v174h176z" />
    <glyph glyph-name="G" unicode="G" horiz-adv-x="1642" 
d="M1038 671h506q1 -27 1 -48q0 -293 -192 -469t-507 -176q-377 0 -562 214.5t-185 507.5q0 307 189 510t513 203q291 0 488 -177v155h177v-457h-177q-50 115 -177.5 204.5t-291.5 89.5q-228 0 -360 -154t-132 -371q0 -249 150.5 -395t362.5 -146q166 0 296 92.5t152 242.5
h-251v174z" />
    <glyph glyph-name="H" unicode="H" horiz-adv-x="1450" 
d="M213 174v1043h-158v174h532v-174h-164v-398h605v398h-163v174h532v-174h-159v-1043h159v-174h-532v174h163v471h-605v-471h164v-174h-532v174h158z" />
    <glyph glyph-name="I" unicode="I" horiz-adv-x="641" 
d="M215 174v1043h-151v174h512v-174h-151v-1043h151v-174h-512v174h151z" />
    <glyph glyph-name="J" unicode="J" horiz-adv-x="641" 
d="M-72 -413v195q78 -20 150 -20q90 0 119.5 49.5t29.5 198.5v1207h-178v174h566v-174h-178v-1217q0 -157 -23.5 -238.5t-113 -139.5t-212.5 -58q-85 0 -160 23z" />
    <glyph glyph-name="K" unicode="K" horiz-adv-x="1280" 
d="M211 174v1043h-174v174h563v-174h-179v-1043h160v-174h-544v174h174zM428 734l446 483h-159v174h545v-174h-148l-428 -483l440 -560h149v-174h-565v174h150z" />
    <glyph glyph-name="L" unicode="L" horiz-adv-x="1067" 
d="M209 174v1043h-180v174h569v-174h-171v-1043h426v473h196v-647h-1020v174h180z" />
    <glyph glyph-name="M" unicode="M" horiz-adv-x="1792" 
d="M217 174v1043h-167v174h476l366 -953l370 953h481v-174h-168v-1043h168v-174h-524v174h166v1043l-480 -1231h-41l-475 1231v-1043h153v-174h-492v174h167z" />
    <glyph glyph-name="N" unicode="N" horiz-adv-x="1473" 
d="M209 174v1043h-199v174h475l610 -1081v907h-197v174h571v-174h-205v-1231h-216l-667 1187v-999h199v-174h-570v174h199z" />
    <glyph glyph-name="O" unicode="O" horiz-adv-x="1642" 
d="M102 702q0 303 198 507t516 204q321 0 523 -204t202 -511q0 -313 -205.5 -516.5t-522.5 -203.5q-202 0 -371.5 96.5t-254.5 269t-85 358.5zM331 701q0 -229 134 -384t352 -155q216 0 355 158.5t139 378.5q0 222 -141.5 375.5t-355.5 153.5q-213 0 -348 -151t-135 -376z
" />
    <glyph glyph-name="P" unicode="P" 
d="M216 174v1043h-175v174h497q219 0 328 -31t182.5 -140.5t73.5 -258.5q0 -119 -48.5 -213.5t-120 -139.5t-161 -60.5t-270.5 -15.5h-96v-358h180v-174h-565v174h175zM426 700h120q205 0 284 58.5t79 206.5q0 94 -42 156t-104 79t-207 17h-130v-517z" />
    <glyph glyph-name="Q" unicode="Q" horiz-adv-x="1642" 
d="M916 -15l41 -18q163 -67 251 -67q28 0 73 9l-74 -172q-30 -5 -55 -5q-99 0 -273 84q-150 72 -236 72q-89 0 -143 -49l-59 85q59 64 154 84q-168 53 -284.5 170.5t-162.5 253t-46 269.5q0 295 195 503.5t519 208.5t524 -203t200 -512q0 -164 -63 -312.5t-216 -266.5
t-345 -134zM331 701q0 -229 134 -384t352 -155q216 0 355 158.5t139 378.5q0 222 -141.5 375.5t-355.5 153.5q-213 0 -348 -151t-135 -376z" />
    <glyph glyph-name="R" unicode="R" horiz-adv-x="1237" 
d="M217 174v1043h-191v174h565q177 0 281 -27.5t172 -116t68 -220.5q0 -276 -287 -347l246 -506h170v-174h-301l-317 650h-196v-476h178v-174h-579v174h191zM427 824h164q119 0 175.5 15.5t92.5 63t36 127.5q0 68 -36.5 115t-90 59.5t-163.5 12.5h-178v-393z" />
    <glyph glyph-name="S" unicode="S" horiz-adv-x="1087" 
d="M71 0v505h174v-123q125 -227 327 -227q103 0 174 63t71 165q0 99 -58 142.5t-219 86.5q-187 50 -277 94.5t-143.5 127t-53.5 195.5q0 175 116.5 279.5t292.5 104.5q167 0 310 -108v93h170v-422h-170v97q-107 161 -295 161q-114 0 -175 -52.5t-61 -125.5q0 -56 31 -98.5
t79 -62.5t189 -56q184 -48 267 -89.5t143 -138.5t60 -223q0 -178 -125.5 -294t-310.5 -116q-190 0 -342 137v-115h-174z" />
    <glyph glyph-name="T" unicode="T" 
d="M483 174v1043h-287v-355h-172v529h1127v-529h-172v355h-286v-1043h181v-174h-569v174h178z" />
    <glyph glyph-name="U" unicode="U" horiz-adv-x="1386" 
d="M409 1217v-696q0 -162 16.5 -224t82.5 -105.5t170 -43.5q124 0 190 37.5t87.5 101t21.5 224.5v706h-161v174h544v-174h-174v-727q0 -147 -12.5 -213.5t-67.5 -139t-155 -116t-243 -43.5q-158 0 -263 40.5t-158 108.5t-70.5 145t-17.5 239v706h-172v174h547v-174h-165z
" />
    <glyph glyph-name="V" unicode="V" horiz-adv-x="1450" 
d="M635 -14l-467 1231h-172v174h549v-174h-161l354 -934l345 934h-162v174h534v-174h-169l-458 -1231h-193z" />
    <glyph glyph-name="W" unicode="W" horiz-adv-x="2048" 
d="M521 -14l-354 1231h-167v174h532v-174h-167l263 -910l253 910h-166v174h639v-174h-163l254 -910l258 910h-165v174h511v-174h-164l-347 -1231h-199l-313 1100l-311 -1100h-194z" />
    <glyph glyph-name="X" unicode="X" horiz-adv-x="1343" 
d="M207 174l354 527l-354 516h-179v174h560v-174h-157l241 -353l243 353h-161v174h534v-174h-174l-343 -499l373 -544h181v-174h-571v174h161l-255 378l-254 -378h169v-174h-554v174h186z" />
    <glyph glyph-name="Y" unicode="Y" horiz-adv-x="1323" 
d="M563 174v459l-414 584h-170v174h572v-174h-175l307 -429l280 429h-175v174h555v-174h-184l-386 -584v-459h190v-174h-587v174h187z" />
    <glyph glyph-name="Z" unicode="Z" horiz-adv-x="1153" 
d="M51 0v174l745 1043h-539v-245h-172v419h977v-154l-758 -1063h609v269h172v-443h-1034z" />
    <glyph glyph-name="bracketleft" unicode="[" horiz-adv-x="768" 
d="M709 1391v-139h-304v-1530h304v-139h-494v1808h494z" />
    <glyph glyph-name="backslash" unicode="\" horiz-adv-x="897" 
d="M176 1419l710 -1441h-166l-710 1441h166z" />
    <glyph glyph-name="bracketright" unicode="]" horiz-adv-x="768" 
d="M59 1391h494v-1808h-494v139h304v1530h-304v139z" />
    <glyph glyph-name="asciicircum" unicode="^" horiz-adv-x="961" 
d="M239 590h-185l353 801h145l355 -801h-181l-247 597z" />
    <glyph glyph-name="underscore" unicode="_" horiz-adv-x="1024" 
d="M-12 -154h1048v-102h-1048v102z" />
    <glyph glyph-name="grave" unicode="`" horiz-adv-x="682" 
d="M528 1096h-128l-289 317h276z" />
    <glyph glyph-name="a" unicode="a" horiz-adv-x="1087" 
d="M1061 169v-169h-332v118q-138 -134 -308 -134q-132 0 -229.5 86t-97.5 220q0 135 103.5 224t249.5 89q136 0 263 -82v96q0 74 -14 114t-65.5 72t-134.5 32q-143 0 -207 -114l-182 48q121 226 418 226q109 0 188.5 -29.5t118.5 -76t52.5 -100.5t13.5 -172v-448h163z
M710 360q-123 96 -249 96q-79 0 -132 -46t-53 -119q0 -68 46.5 -114t126.5 -46q138 0 261 116v113z" />
    <glyph glyph-name="b" unicode="b" horiz-adv-x="1323" 
d="M54 0v169h172v1053h-172v169h358v-560q143 164 351 164q200 0 335.5 -137.5t135.5 -362.5q0 -216 -132.5 -363.5t-339.5 -147.5q-116 0 -212 50t-138 111v-145h-358zM418 482q0 -151 92.5 -239.5t213.5 -88.5q127 0 219 94t92 252q0 153 -91.5 237.5t-214.5 84.5
q-121 0 -216 -87.5t-95 -252.5z" />
    <glyph glyph-name="c" unicode="c" horiz-adv-x="1067" 
d="M990 968v-366h-170q-13 105 -85.5 161t-168.5 56q-128 0 -208 -90.5t-80 -237.5q0 -137 76 -241.5t220 -104.5q200 0 290 190l157 -74q-130 -289 -455 -289q-230 0 -362 157t-132 362q0 219 144 361.5t332 142.5q161 0 272 -95v68h170z" />
    <glyph glyph-name="d" unicode="d" horiz-adv-x="1280" 
d="M1275 169v-169h-364v142q-142 -158 -346 -158q-189 0 -332 129t-143 367q0 239 147 377t332 138q196 0 342 -156v383h-186v169h376v-1222h174zM293 485q0 -160 90.5 -246t216.5 -86q122 0 216.5 90.5t94.5 250.5q0 161 -96.5 243t-216.5 82q-129 0 -217 -96.5t-88 -237.5
z" />
    <glyph glyph-name="e" unicode="e" 
d="M1098 436h-814q18 -134 106 -217t225 -83q199 0 315 160l168 -74q-82 -127 -213 -188.5t-274 -61.5q-222 0 -379.5 138.5t-157.5 373.5q0 223 153.5 367t352.5 144q195 0 353.5 -140.5t164.5 -418.5zM902 574q-20 102 -106 184.5t-211 82.5q-114 0 -195 -74.5t-99 -192.5
h611z" />
    <glyph glyph-name="f" unicode="f" horiz-adv-x="598" 
d="M197 169v630h-141v168h141v140q0 177 75 244.5t177 67.5q220 0 255 -223l-169 -26q-10 93 -73 93q-43 0 -59 -29.5t-16 -126.5v-140h166v-168h-166v-630h184v-169h-515v169h141z" />
    <glyph glyph-name="g" unicode="g" horiz-adv-x="1280" 
d="M1257 968v-169h-174v-721q0 -146 -15 -216.5t-72.5 -144t-172.5 -123.5t-257 -50q-214 0 -382 129l124 138q126 -98 274 -98q82 0 152 31.5t104.5 76.5t44.5 85.5t10 136.5v88q-45 -57 -141 -108t-210 -51q-208 0 -339 144t-131 354q0 230 144.5 371.5t334.5 141.5
q192 0 342 -153v138h364zM274 474q0 -147 85.5 -240t218.5 -93q130 0 224 93.5t94 240.5q0 149 -94 239.5t-218 90.5t-217 -89.5t-93 -241.5z" />
    <glyph glyph-name="h" unicode="h" 
d="M217 169v1053h-175v169h365v-534q171 138 325 138q96 0 158 -40t84.5 -105.5t22.5 -191.5v-489h165v-169h-355v592q0 110 -7 147t-38.5 61t-74.5 24q-110 0 -280 -125v-530h168v-169h-533v169h175z" />
    <glyph glyph-name="i" unicode="i" horiz-adv-x="598" 
d="M190 1297q0 46 32.5 80t82.5 34q47 0 81 -33t34 -81t-34 -81.5t-81 -33.5q-48 0 -81.5 34t-33.5 81zM217 169v630h-151v169h341v-799h149v-169h-490v169h151z" />
    <glyph glyph-name="j" unicode="j" horiz-adv-x="598" 
d="M202 1297q0 47 34 80.5t81 33.5q48 0 81.5 -33t33.5 -81t-34 -81.5t-81 -33.5q-49 0 -82 34.5t-33 80.5zM-38 -416v172q48 -6 92 -6q75 0 112.5 23t50 67t12.5 273v686h-152v169h342v-824q0 -249 -16 -347t-95 -160.5t-234 -62.5q-59 0 -112 10z" />
    <glyph glyph-name="k" unicode="k" 
d="M224 169v1053h-174v169h364v-869l362 289h-161v157h535v-157h-148l-363 -302l341 -340h170v-169h-249l-487 487v-318h167v-169h-531v169h174z" />
    <glyph glyph-name="l" unicode="l" horiz-adv-x="598" 
d="M213 169v1053h-172v169h362v-1222h148v-169h-510v169h172z" />
    <glyph glyph-name="m" unicode="m" horiz-adv-x="1772" 
d="M227 169v630h-161v169h351v-122q172 137 337 137q166 0 229 -151q189 151 352 151q94 0 154.5 -41.5t81.5 -105t21 -187.5v-480h169v-169h-359v615q0 84 -7.5 118.5t-38 57t-73.5 22.5q-122 0 -277 -125v-519h166v-169h-356v633q0 95 -27.5 137.5t-93.5 42.5
q-108 0 -278 -125v-519h170v-169h-533v169h173z" />
    <glyph glyph-name="n" unicode="n" 
d="M415 968v-117q183 132 334 132q94 0 155.5 -44.5t80.5 -109t19 -188.5v-472h163v-169h-353v633q0 110 -33 143.5t-81 33.5q-126 0 -285 -123v-518h167v-169h-527v169h170v630h-170v169h360z" />
    <glyph glyph-name="o" unicode="o" 
d="M78 484q0 224 148 367.5t361 143.5q209 0 359 -141.5t150 -369.5t-149.5 -370t-359.5 -142q-216 0 -362.5 144t-146.5 368zM279 484q0 -143 89.5 -234.5t218.5 -91.5q131 0 219.5 92.5t88.5 233.5q0 142 -90 234t-218 92q-134 0 -221 -94t-87 -232z" />
    <glyph glyph-name="p" unicode="p" horiz-adv-x="1280" 
d="M191 -265v1064h-163v169h353v-152q142 167 344 167q204 0 337.5 -140t133.5 -364q0 -235 -145 -371t-330 -136q-192 0 -340 148v-385h188v-169h-555v169h177zM378 470q0 -80 33 -153t105 -122.5t169 -49.5q136 0 224.5 91t88.5 250q0 155 -92.5 242t-210.5 87
q-126 0 -221.5 -94.5t-95.5 -250.5z" />
    <glyph glyph-name="q" unicode="q" horiz-adv-x="1260" 
d="M1079 -265h177v-169h-555v169h188v387q-144 -150 -343 -150q-181 0 -326.5 135t-145.5 374q0 226 135 364t336 138q202 0 344 -167v152h353v-169h-163v-1064zM892 470q0 156 -95.5 250.5t-221.5 94.5q-122 0 -212.5 -89t-90.5 -243q0 -141 81.5 -239.5t229.5 -98.5
q149 0 229 100t80 225z" />
    <glyph glyph-name="r" unicode="r" horiz-adv-x="854" 
d="M240 169v630h-195v169h347v-218q32 85 89 141t120.5 74t173.5 18h50v-192h-38q-145 0 -216.5 -29t-106 -105.5t-34.5 -274.5v-213h211v-169h-596v169h195z" />
    <glyph glyph-name="s" unicode="s" horiz-adv-x="938" 
d="M84 0v332h170v-32q9 -68 73.5 -112t152.5 -44q92 0 147 32t55 89q0 55 -45.5 81t-180.5 48q-200 34 -285.5 109.5t-85.5 195.5q0 121 93 202.5t245 81.5q137 0 236 -56v41h169v-321h-169v59q-77 119 -224 119q-75 0 -123.5 -32.5t-48.5 -86.5q0 -55 44.5 -75.5
t191.5 -43.5q141 -22 213 -51.5t119.5 -98t47.5 -159.5q0 -135 -103.5 -214.5t-268.5 -79.5q-155 0 -253 70v-54h-170z" />
    <glyph glyph-name="t" unicode="t" horiz-adv-x="618" 
d="M62 799v169h126v149l190 174v-323h179v-169h-179v-470q0 -113 12.5 -139.5t62.5 -26.5q53 0 104 20v-173q-73 -26 -146 -26q-87 0 -141 38.5t-68 96.5t-14 200v480h-126z" />
    <glyph glyph-name="u" unicode="u" horiz-adv-x="1153" 
d="M1133 169v-169h-357v111q-167 -127 -320 -127q-97 0 -160.5 42.5t-84.5 110t-21 217.5v445h-137v169h327v-590q0 -107 6 -144t35 -61t73 -24q132 0 282 126v524h-171v169h361v-799h167z" />
    <glyph glyph-name="v" unicode="v" horiz-adv-x="1110" 
d="M483 -16l-316 815h-171v169h487v-169h-126l208 -549l209 549h-134v169h473v-169h-149l-309 -815h-172z" />
    <glyph glyph-name="w" unicode="w" horiz-adv-x="1579" 
d="M374 -16l-259 815h-118v169h408v-169h-127l185 -584l185 584h-106v169h468v-169h-106l185 -584l186 584h-133v169h437v-169h-139l-260 -815h-179l-222 700l-226 -700h-179z" />
    <glyph glyph-name="x" unicode="x" horiz-adv-x="1130" 
d="M569 385l-188 -216h124v-169h-469v169h143l291 329l-278 301h-131v169h455v-169h-121l174 -187l168 187h-99v169h457v-169h-159l-265 -301l302 -329h122v-169h-457v169h134z" />
    <glyph glyph-name="y" unicode="y" horiz-adv-x="1153" 
d="M496 17l-318 782h-161v169h479v-169h-116l209 -536l205 536h-128v169h469v-169h-144l-479 -1233h-321v166h189z" />
    <glyph glyph-name="z" unicode="z" horiz-adv-x="918" 
d="M33 0v158l607 653h-398v-186h-162v343h786v-169l-609 -641h443v198h166v-356h-833z" />
    <glyph glyph-name="braceleft" unicode="{" horiz-adv-x="682" 
d="M58 556q72 2 120 36t67.5 99t19.5 233q0 215 24 299t92 126t200 42h56v-149h-31q-100 0 -136 -33.5t-36 -159.5q0 -222 -10 -311t-55 -152t-144 -108q105 -40 157 -129.5t52 -293.5q0 -188 5.5 -238t38 -76t128.5 -26h31v-149h-56q-98 0 -154 19t-97.5 71.5t-53 130
t-11.5 246.5q0 168 -19.5 233t-68 99t-119.5 36v155z" />
    <glyph glyph-name="bar" unicode="|" horiz-adv-x="1079" 
d="M461 1419h157v-1875h-157v1875z" />
    <glyph glyph-name="braceright" unicode="}" horiz-adv-x="682" 
d="M624 401q-72 -2 -120 -36t-67.5 -99.5t-19.5 -232.5q0 -215 -24 -299.5t-92 -126t-200 -41.5h-56v148h31q100 0 136 33.5t36 159.5q0 223 10 312t55 151.5t144 107.5q-105 40 -157 130t-52 293q0 188 -6 238.5t-38.5 76.5t-127.5 26h-31v149h56q98 0 154 -19t97.5 -71.5
t53 -130t11.5 -246.5q0 -168 19 -233t68 -99.5t120 -35.5v-155z" />
    <glyph glyph-name="asciitilde" unicode="~" horiz-adv-x="1194" 
d="M1145 666q-155 -128 -293 -128q-61 0 -119 18t-193 81q-127 59 -193 59q-135 0 -298 -140v169q157 128 305 128q93 0 293 -94q136 -63 204 -63q133 0 294 139v-169z" />
    <glyph glyph-name="nbspace" unicode="&#xa0;" horiz-adv-x="512" 
 />
    <glyph glyph-name="exclamdown" unicode="&#xa1;" horiz-adv-x="598" 
d="M176 977h246v-245h-246v245zM349 604l50 -596v-418h-202v418l50 596h102z" />
    <glyph glyph-name="cent" unicode="&#xa2;" horiz-adv-x="1067" 
d="M347 23q-125 68 -195 195.5t-70 272.5q0 214 142.5 359t328.5 145q70 0 133 -22l157 448h89l-169 -474q37 -20 67 -47v73h170v-371h-157q-22 128 -137 186l-223 -627q44 -16 98 -16q203 0 293 190l157 -74q-130 -289 -457 -289q-82 0 -151 20l-155 -434h-87zM410 202
l218 612q-28 5 -53 5q-129 0 -208 -91t-79 -237q0 -188 122 -289z" />
    <glyph glyph-name="sterling" unicode="&#xa3;" horiz-adv-x="1110" 
d="M572 597q13 -69 13 -134q0 -98 -31 -203q162 -82 223 -82q157 0 173 175h121q-5 -200 -88.5 -287.5t-209.5 -87.5t-292 122q-95 -122 -219 -122q-78 0 -136 49t-58 134q0 91 62.5 144t142.5 53q65 0 147 -36q2 28 2 42q0 96 -50 233h-305v161h244q-79 199 -79 328
q0 163 109.5 245t258.5 82q158 0 267.5 -87t109.5 -270q0 -12 -1 -35h-191l2 54q0 64 -40.5 121t-137.5 57q-182 0 -182 -161q0 -82 97 -334h249v-161h-201zM382 175q-84 63 -137 63q-31 0 -54.5 -20.5t-23.5 -55.5q0 -76 83 -76q73 0 132 89z" />
    <glyph glyph-name="currency" unicode="&#xa4;" horiz-adv-x="1366" 
d="M183 1089l104 107l132 -131q114 87 262 87q143 0 266 -87l131 131l104 -107l-130 -130q86 -125 86 -268q0 -142 -86 -259l130 -129l-104 -105l-131 129q-125 -88 -269 -88q-142 0 -259 88l-130 -129l-106 105l131 129q-86 132 -86 270q0 137 86 257zM683 1002
q-126 0 -216.5 -89.5t-90.5 -217.5q0 -127 90 -217t217 -90t217.5 90.5t90.5 216.5q0 128 -90.5 217.5t-217.5 89.5z" />
    <glyph glyph-name="yen" unicode="&#xa5;" horiz-adv-x="1323" 
d="M875 788h371v-117h-448l-25 -38v-171h473v-117h-473v-171h190v-174h-587v174h187v171h-487v117h487v171l-26 38h-461v117h378l-305 429h-170v174h572v-174h-175l307 -429l280 429h-175v174h555v-174h-184z" />
    <glyph glyph-name="brokenbar" unicode="&#xa6;" horiz-adv-x="1079" 
d="M461 1419h157v-779h-157v779zM461 322h157v-778h-157v778z" />
    <glyph glyph-name="section" unicode="&#xa7;" horiz-adv-x="981" 
d="M871 1050h-188q-6 108 -71 153.5t-149 45.5q-75 0 -130.5 -39t-55.5 -108t59.5 -113t220.5 -102q202 -72 288 -145.5t86 -197.5q0 -179 -197 -293q166 -95 166 -268q0 -140 -104 -240.5t-287 -100.5q-164 0 -275 87.5t-117 284.5h186q3 -98 61 -149t149 -51
q95 0 145.5 43.5t50.5 104.5t-58.5 106t-230.5 106q-141 50 -211 89t-114.5 107.5t-44.5 146.5q0 174 203 287q-166 97 -166 274q0 150 109.5 242.5t276.5 92.5q193 0 295.5 -96.5t102.5 -248.5v-18zM370 744q-140 -76 -140 -176q0 -55 39.5 -95t340.5 -159q147 71 147 182
q0 60 -50.5 98t-204.5 96q-73 28 -132 54z" />
    <glyph glyph-name="dieresis" unicode="&#xa8;" horiz-adv-x="682" 
d="M49 1255q0 45 32.5 78t78.5 33t78.5 -32.5t32.5 -78.5q0 -47 -32.5 -79t-78.5 -32q-45 0 -78 32.5t-33 78.5zM411 1255q0 44 31.5 77.5t79.5 33.5q46 0 78.5 -33t32.5 -78q0 -46 -32.5 -78.5t-78.5 -32.5q-47 0 -79 32.5t-32 78.5z" />
    <glyph glyph-name="copyright" unicode="&#xa9;" horiz-adv-x="1516" 
d="M758 1413q190 0 368.5 -96.5t282 -277t103.5 -381.5q0 -312 -220.5 -533.5t-533.5 -221.5t-534 221.5t-221 533.5q0 203 103 381t280 276t372 98zM758 1287q-158 0 -307 -80.5t-236 -230.5t-87 -318q0 -260 184.5 -444.5t445.5 -184.5t445 184.5t184 444.5
q0 261 -185 445t-444 184zM1000 535l123 -36q-28 -124 -127.5 -198.5t-234.5 -74.5q-126 0 -217.5 57t-136 154t-44.5 219q0 196 107.5 310.5t296.5 114.5q133 0 222.5 -64.5t118.5 -171.5l-119 -29q-61 154 -226 154q-127 0 -195.5 -90t-68.5 -227q0 -147 69 -228.5
t184 -81.5q85 0 156 50.5t92 141.5z" />
    <glyph glyph-name="ordfeminine" unicode="&#xaa;" horiz-adv-x="705" 
d="M676 917v-101h-215v70q-89 -80 -200 -80q-82 0 -147.5 50t-65.5 134q0 85 69.5 136.5t161.5 51.5q86 0 169 -50v58q0 64 -30.5 97.5t-107.5 33.5q-93 0 -135 -69l-119 29q79 136 270 136q93 0 150.5 -28t76 -70.5t18.5 -128.5v-269h105zM448 1032q-79 57 -159 57
q-56 0 -89.5 -28.5t-33.5 -70.5q0 -37 28.5 -66.5t85.5 -29.5q88 0 168 69v69z" />
    <glyph glyph-name="guillemotleft" unicode="&#xab;" horiz-adv-x="981" 
d="M33 484l297 484h200l-292 -484l292 -484h-200zM461 484l297 484h200l-292 -484l292 -484h-200z" />
    <glyph glyph-name="logicalnot" unicode="&#xac;" horiz-adv-x="1366" 
d="M135 1009h1096v-627h-157v470h-939v157z" />
    <glyph glyph-name="registered" unicode="&#xae;" horiz-adv-x="1516" 
d="M758 1413q190 0 368.5 -96.5t282 -277t103.5 -381.5q0 -312 -220.5 -533.5t-533.5 -221.5t-534 221.5t-221 533.5q0 203 103 381t280 276t372 98zM758 1287q-158 0 -307 -80.5t-236 -230.5t-87 -318q0 -260 184.5 -444.5t445.5 -184.5t445 184.5t184 444.5
q0 261 -185 445t-444 184zM427 241v811h279q121 0 187 -16t113 -73t47 -131q0 -86 -63 -153.5t-169 -75.5q75 -21 189 -204l99 -158h-160l-72 128q-82 144 -125 180t-117 36h-77v-344h-131zM558 697h159q197 0 197 124q0 66 -47 93.5t-160 27.5h-149v-245z" />
    <glyph glyph-name="overscore" unicode="&#xaf;" horiz-adv-x="1024" 
d="M-12 1647h1048v-102h-1048v102z" />
    <glyph glyph-name="degree" unicode="&#xb0;" horiz-adv-x="811" 
d="M406 1413q142 0 244 -101.5t102 -244.5q0 -142 -101.5 -244t-244.5 -102q-144 0 -245 101.5t-101 244.5t101.5 244.5t244.5 101.5zM406 1283q-88 0 -151.5 -63t-63.5 -152t63 -152t152 -63t152 63.5t63 151.5q0 91 -64 153t-151 62z" />
    <glyph glyph-name="plusminus" unicode="&#xb1;" horiz-adv-x="1366" 
d="M135 943h470v470h156v-470h470v-157h-470v-469h-156v469h-470v157zM135 135h1096v-157h-1096v157z" />
    <glyph glyph-name="twosuperior" unicode="&#xb2;" horiz-adv-x="682" 
d="M606 946l-8 -267h-549q0 117 62 201.5t230 190.5q75 47 95 75.5t20 63.5q0 106 -125 106q-70 0 -99.5 -34.5t-29.5 -114.5q0 -19 2 -43h-134v36q0 253 265 253q121 0 191.5 -56t70.5 -143q0 -69 -44.5 -118t-171.5 -127q-169 -103 -187 -184h285v161h127z" />
    <glyph glyph-name="threesuperior" unicode="&#xb3;" horiz-adv-x="682" 
d="M248 1005v101q130 0 169 21.5t39 80.5q0 44 -28 76.5t-87 32.5q-124 0 -125 -143h-138q0 239 259 239q124 0 189.5 -56.5t65.5 -140.5q0 -99 -96 -158q134 -47 134 -171q0 -99 -82.5 -159t-216.5 -60q-290 0 -290 265h132q6 -168 169 -168q69 0 108 32.5t39 86.5
q0 122 -200 122q-13 0 -41 -1z" />
    <glyph glyph-name="acute" unicode="&#xb4;" horiz-adv-x="682" 
d="M156 1096l141 317h276l-289 -317h-128z" />
    <glyph glyph-name="mu" unicode="&#xb5;" horiz-adv-x="1130" 
d="M993 968v-968h-161v126q-89 -151 -269 -151q-155 0 -250 132v-541h-178v1402h178v-356q0 -191 14.5 -275t77 -141.5t153.5 -57.5t158 55t83.5 135t16.5 281v359h177z" />
    <glyph glyph-name="paragraph" unicode="&#xb6;" horiz-adv-x="1110" 
d="M404 -434v997q-185 8 -294.5 120.5t-109.5 289.5q0 178 115 298t358 120h633v-173h-144v-1652h-167v1652h-223v-1652h-168z" />
    <glyph glyph-name="cedilla" unicode="&#xb8;" horiz-adv-x="682" 
d="M422 21l-21 -118q142 -35 142 -163q0 -97 -80 -147t-222 -50h-72v111q106 0 144.5 18t38.5 58q0 58 -96 58l41 233h125z" />
    <glyph glyph-name="onesuperior" unicode="&#xb9;" horiz-adv-x="682" 
d="M267 778v524h-112v98h249v-622h106v-99h-355v99h112z" />
    <glyph glyph-name="ordmasculine" unicode="&#xba;" horiz-adv-x="768" 
d="M53 1106q0 137 97 222t234 85t234 -85.5t97 -221.5q0 -137 -97 -222t-234 -85q-138 0 -234.5 86t-96.5 221zM184 1106q0 -86 58.5 -141t141.5 -55t141.5 55.5t58.5 140.5q0 88 -59.5 141.5t-140.5 53.5q-82 0 -141 -53.5t-59 -141.5z" />
    <glyph glyph-name="guillemotright" unicode="&#xbb;" horiz-adv-x="981" 
d="M520 484l-297 -484h-200l293 484l-293 484h200zM948 484l-297 -484h-200l293 484l-293 484h200z" />
    <glyph glyph-name="onequarter" unicode="&#xbc;" horiz-adv-x="1985" 
d="M267 778v524h-112v98h249v-622h106v-99h-355v99h112zM250 0l1103 1389h121l-1101 -1389h-123zM1291 190h-275q-14 54 -55 87l347 451h115v-438h131v-100h-131v-91h75v-99h-295v99h88v91zM1291 290v241l-186 -241h186z" />
    <glyph glyph-name="onehalf" unicode="&#xbd;" horiz-adv-x="1985" 
d="M252 778v524h-112v98h249v-622h106v-99h-355v99h112zM199 0l1103 1389h121l-1101 -1389h-123zM1581 266l-8 -266h-548q0 117 62 201.5t230 190.5q73 46 94 74.5t21 64.5q0 106 -126 106q-73 0 -100.5 -37.5t-27.5 -110.5q0 -17 2 -44h-134q-1 22 -1 38q0 131 74.5 190.5
t191.5 59.5q121 0 191.5 -56t70.5 -142q0 -69 -44.5 -118t-171.5 -127q-169 -103 -187 -185h285v161h126z" />
    <glyph glyph-name="threequarters" unicode="&#xbe;" horiz-adv-x="1985" 
d="M332 1005v101q130 0 169 21.5t39 80.5q0 44 -28 76.5t-87 32.5q-124 0 -125 -143h-138q0 239 259 239q124 0 189.5 -56.5t65.5 -140.5q0 -99 -96 -158q134 -47 134 -171q0 -99 -82.5 -159t-216.5 -60q-290 0 -290 265h132q6 -168 169 -168q69 0 108 32.5t39 86.5
q0 122 -200 122q-13 0 -41 -1zM332 0l1103 1389h121l-1104 -1389h-120zM1445 190h-275q-14 54 -55 87l347 451h115v-438h131v-100h-131v-91h75v-99h-295v99h88v91zM1445 290v241l-186 -241h186z" />
    <glyph glyph-name="questiondown" unicode="&#xbf;" horiz-adv-x="961" 
d="M664 977v-245h-246v245h246zM489 602h103l24 -442q-47 12 -95 12q-130 0 -188 -66t-58 -156q0 -108 62 -166t159 -58q118 0 174 68t56 170q0 22 -1 50h187q1 -28 1 -48q0 -205 -121.5 -303.5t-289.5 -98.5q-204 0 -314 108t-110 286q0 171 105.5 273t248.5 102
q11 0 32 -1z" />
    <glyph glyph-name="Agrave" unicode="&#xc0;" horiz-adv-x="1430" 
d="M970 489h-500l-107 -315h169v-174h-548v174h168l380 1060h-169v157h711v-157h-173l389 -1060h156v-174h-545v174h173zM918 652l-185 582h-19l-192 -582h396zM851 1473h-128l-289 317h276z" />
    <glyph glyph-name="Aacute" unicode="&#xc1;" horiz-adv-x="1430" 
d="M970 489h-500l-107 -315h169v-174h-548v174h168l380 1060h-169v157h711v-157h-173l389 -1060h156v-174h-545v174h173zM918 652l-185 582h-19l-192 -582h396zM579 1473l141 317h276l-289 -317h-128z" />
    <glyph glyph-name="Acircumflex" unicode="&#xc2;" horiz-adv-x="1430" 
d="M970 489h-500l-107 -315h169v-174h-548v174h168l380 1060h-169v157h711v-157h-173l389 -1060h156v-174h-545v174h173zM918 652l-185 582h-19l-192 -582h396zM715 1650l-165 -174h-135l168 312h267l173 -312h-141z" />
    <glyph glyph-name="Atilde" unicode="&#xc3;" horiz-adv-x="1430" 
d="M970 489h-500l-107 -315h169v-174h-548v174h168l380 1060h-169v157h711v-157h-173l389 -1060h156v-174h-545v174h173zM918 652l-185 582h-19l-192 -582h396zM939 1768h112q-4 -154 -58.5 -216t-124.5 -62q-71 0 -181 67q-97 58 -127 58q-31 0 -44 -24.5t-13 -85.5h-115
q1 144 54 206t128 62q60 0 184 -72q86 -51 114 -51q67 0 71 118z" />
    <glyph glyph-name="Adieresis" unicode="&#xc4;" horiz-adv-x="1430" 
d="M970 489h-500l-107 -315h169v-174h-548v174h168l380 1060h-169v157h711v-157h-173l389 -1060h156v-174h-545v174h173zM918 652l-185 582h-19l-192 -582h396zM427 1617q0 45 32.5 78t78.5 33t78.5 -32.5t32.5 -78.5q0 -47 -32.5 -79t-78.5 -32q-45 0 -78 32.5t-33 78.5z
M789 1617q0 44 31.5 77.5t79.5 33.5q46 0 78.5 -33t32.5 -78q0 -46 -32.5 -78.5t-78.5 -32.5q-47 0 -79 32.5t-32 78.5z" />
    <glyph glyph-name="Aring" unicode="&#xc5;" horiz-adv-x="1430" 
d="M634 1391q-136 58 -136 202q0 89 63.5 153t153.5 64q91 0 154 -64t63 -153q0 -144 -136 -202h278v-157h-173l389 -1060h156v-174h-545v174h173l-104 315h-500l-107 -315h169v-174h-548v174h168l380 1060h-169v157h271zM594 1592q0 -48 35 -84t86 -36q50 0 85.5 35.5
t35.5 84.5q0 50 -35 85.5t-86 35.5q-50 0 -85.5 -35.5t-35.5 -85.5zM918 652l-185 582h-19l-192 -582h396z" />
    <glyph glyph-name="AE" unicode="&#xc6;" horiz-adv-x="1921" 
d="M853 634h-393l-239 -460h151v-174h-493v174h134l538 1043h-220v174h1506v-419h-172v245h-602v-409h522v-174h-522v-460h602v254h172v-428h-1207v174h223v460zM853 808v409h-91l-215 -409h306z" />
    <glyph glyph-name="Ccedilla" unicode="&#xc7;" horiz-adv-x="1556" 
d="M729 -19q-300 21 -471 224t-171 486q0 330 192 526t501 196q273 0 459 -149v127h180v-447h-180q-60 136 -185 210.5t-263 74.5q-208 0 -341.5 -150t-133.5 -379q0 -235 143 -384t339 -149q161 0 293 103.5t186 295.5l181 -101q-55 -211 -214.5 -336.5t-378.5 -147.5
l-8 -49q174 -24 174 -175q0 -73 -59 -142t-276 -69q-38 0 -85 1v114q122 0 165 15.5t43 53.5q0 36 -27.5 51t-98.5 15z" />
    <glyph glyph-name="Egrave" unicode="&#xc8;" horiz-adv-x="1280" 
d="M236 174v1043h-180v174h1156v-419h-172v245h-594v-414h517v-174h-517v-455h594v253h172v-427h-1156v174h180zM782 1473h-128l-289 317h276z" />
    <glyph glyph-name="Eacute" unicode="&#xc9;" horiz-adv-x="1280" 
d="M236 174v1043h-180v174h1156v-419h-172v245h-594v-414h517v-174h-517v-455h594v253h172v-427h-1156v174h180zM510 1473l141 317h276l-289 -317h-128z" />
    <glyph glyph-name="Ecircumflex" unicode="&#xca;" horiz-adv-x="1280" 
d="M236 174v1043h-180v174h1156v-419h-172v245h-594v-414h517v-174h-517v-455h594v253h172v-427h-1156v174h180zM630 1650l-165 -174h-135l168 312h267l173 -312h-141z" />
    <glyph glyph-name="Edieresis" unicode="&#xcb;" horiz-adv-x="1280" 
d="M236 174v1043h-180v174h1156v-419h-172v245h-594v-414h517v-174h-517v-455h594v253h172v-427h-1156v174h180zM342 1617q0 45 32.5 78t78.5 33t78.5 -32.5t32.5 -78.5q0 -47 -32.5 -79t-78.5 -32q-45 0 -78 32.5t-33 78.5zM704 1617q0 44 31.5 77.5t79.5 33.5
q46 0 78.5 -33t32.5 -78q0 -46 -32.5 -78.5t-78.5 -32.5q-47 0 -79 32.5t-32 78.5z" />
    <glyph glyph-name="Igrave" unicode="&#xcc;" horiz-adv-x="641" 
d="M215 174v1043h-151v174h512v-174h-151v-1043h151v-174h-512v174h151zM482 1473h-128l-289 317h276z" />
    <glyph glyph-name="Iacute" unicode="&#xcd;" horiz-adv-x="641" 
d="M215 174v1043h-151v174h512v-174h-151v-1043h151v-174h-512v174h151zM178 1473l141 317h276l-289 -317h-128z" />
    <glyph glyph-name="Icircumflex" unicode="&#xce;" horiz-adv-x="641" 
d="M215 174v1043h-151v174h512v-174h-151v-1043h151v-174h-512v174h151zM316 1650l-165 -174h-135l168 312h267l173 -312h-141z" />
    <glyph glyph-name="Idieresis" unicode="&#xcf;" horiz-adv-x="641" 
d="M215 174v1043h-151v174h512v-174h-151v-1043h151v-174h-512v174h151zM28 1617q0 45 32.5 78t78.5 33t78.5 -32.5t32.5 -78.5q0 -47 -32.5 -79t-78.5 -32q-45 0 -78 32.5t-33 78.5zM390 1617q0 44 31.5 77.5t79.5 33.5q46 0 78.5 -33t32.5 -78q0 -46 -32.5 -78.5
t-78.5 -32.5q-47 0 -79 32.5t-32 78.5z" />
    <glyph glyph-name="Eth" unicode="&#xd0;" horiz-adv-x="1493" 
d="M216 621h-208v149h208v447h-189v174h538q223 0 343.5 -23t233.5 -104t180.5 -222.5t67.5 -322.5q0 -206 -65 -358t-171 -227t-251 -104.5t-370 -29.5h-506v174h189v447zM426 621v-447h109q185 0 292.5 23t181.5 78.5t120 167.5t46 264q0 181 -75.5 307t-193 164.5
t-362.5 38.5h-118v-447h317v-149h-317z" />
    <glyph glyph-name="Ntilde" unicode="&#xd1;" horiz-adv-x="1473" 
d="M209 174v1043h-199v174h475l610 -1081v907h-197v174h571v-174h-205v-1231h-216l-667 1187v-999h199v-174h-570v174h199zM959 1768h112q-4 -154 -58.5 -216t-124.5 -62q-71 0 -181 67q-97 58 -127 58q-31 0 -44 -24.5t-13 -85.5h-115q1 144 54 206t128 62q60 0 184 -72
q86 -51 114 -51q67 0 71 118z" />
    <glyph glyph-name="Ograve" unicode="&#xd2;" horiz-adv-x="1642" 
d="M102 702q0 303 198 507t516 204q321 0 523 -204t202 -511q0 -313 -205.5 -516.5t-522.5 -203.5q-202 0 -371.5 96.5t-254.5 269t-85 358.5zM331 701q0 -229 134 -384t352 -155q216 0 355 158.5t139 378.5q0 222 -141.5 375.5t-355.5 153.5q-213 0 -348 -151t-135 -376z
M921 1473h-128l-289 317h276z" />
    <glyph glyph-name="Oacute" unicode="&#xd3;" horiz-adv-x="1642" 
d="M102 702q0 303 198 507t516 204q321 0 523 -204t202 -511q0 -313 -205.5 -516.5t-522.5 -203.5q-202 0 -371.5 96.5t-254.5 269t-85 358.5zM331 701q0 -229 134 -384t352 -155q216 0 355 158.5t139 378.5q0 222 -141.5 375.5t-355.5 153.5q-213 0 -348 -151t-135 -376z
M721 1473l141 317h276l-289 -317h-128z" />
    <glyph glyph-name="Ocircumflex" unicode="&#xd4;" horiz-adv-x="1642" 
d="M102 702q0 303 198 507t516 204q321 0 523 -204t202 -511q0 -313 -205.5 -516.5t-522.5 -203.5q-202 0 -371.5 96.5t-254.5 269t-85 358.5zM331 701q0 -229 134 -384t352 -155q216 0 355 158.5t139 378.5q0 222 -141.5 375.5t-355.5 153.5q-213 0 -348 -151t-135 -376z
M818 1650l-165 -174h-135l168 312h267l173 -312h-141z" />
    <glyph glyph-name="Otilde" unicode="&#xd5;" horiz-adv-x="1642" 
d="M102 702q0 303 198 507t516 204q321 0 523 -204t202 -511q0 -313 -205.5 -516.5t-522.5 -203.5q-202 0 -371.5 96.5t-254.5 269t-85 358.5zM331 701q0 -229 134 -384t352 -155q216 0 355 158.5t139 378.5q0 222 -141.5 375.5t-355.5 153.5q-213 0 -348 -151t-135 -376z
M1041 1768h112q-4 -154 -58.5 -216t-124.5 -62q-71 0 -181 67q-97 58 -127 58q-31 0 -44 -24.5t-13 -85.5h-115q1 144 54 206t128 62q60 0 184 -72q86 -51 114 -51q67 0 71 118z" />
    <glyph glyph-name="Odieresis" unicode="&#xd6;" horiz-adv-x="1642" 
d="M102 702q0 303 198 507t516 204q321 0 523 -204t202 -511q0 -313 -205.5 -516.5t-522.5 -203.5q-202 0 -371.5 96.5t-254.5 269t-85 358.5zM331 701q0 -229 134 -384t352 -155q216 0 355 158.5t139 378.5q0 222 -141.5 375.5t-355.5 153.5q-213 0 -348 -151t-135 -376z
M529 1617q0 45 32.5 78t78.5 33t78.5 -32.5t32.5 -78.5q0 -47 -32.5 -79t-78.5 -32q-45 0 -78 32.5t-33 78.5zM891 1617q0 44 31.5 77.5t79.5 33.5q46 0 78.5 -33t32.5 -78q0 -46 -32.5 -78.5t-78.5 -32.5q-47 0 -79 32.5t-32 78.5z" />
    <glyph glyph-name="multiply" unicode="&#xd7;" horiz-adv-x="1366" 
d="M176 300l396 395l-396 396l111 111l396 -396l396 396l111 -111l-396 -396l396 -395l-111 -111l-396 396l-396 -396z" />
    <glyph glyph-name="Oslash" unicode="&#xd8;" horiz-adv-x="1642" 
d="M1354 1194q187 -198 187 -498q0 -311 -206 -514.5t-518 -203.5q-244 0 -427 129l-113 -127l-102 86l114 129q-187 207 -187 512q0 295 198.5 500.5t514.5 205.5q253 0 437 -131l113 128l102 -88zM433 357l681 769q-132 102 -299 102q-214 0 -349 -151t-135 -375
q0 -196 102 -345zM1207 1029l-681 -768q126 -99 292 -99q214 0 353.5 159.5t139.5 376.5q0 188 -104 331z" />
    <glyph glyph-name="Ugrave" unicode="&#xd9;" horiz-adv-x="1386" 
d="M409 1217v-696q0 -162 16.5 -224t82.5 -105.5t170 -43.5q124 0 190 37.5t87.5 101t21.5 224.5v706h-161v174h544v-174h-174v-727q0 -147 -12.5 -213.5t-67.5 -139t-155 -116t-243 -43.5q-158 0 -263 40.5t-158 108.5t-70.5 145t-17.5 239v706h-172v174h547v-174h-165z
M805 1473h-128l-289 317h276z" />
    <glyph glyph-name="Uacute" unicode="&#xda;" horiz-adv-x="1386" 
d="M409 1217v-696q0 -162 16.5 -224t82.5 -105.5t170 -43.5q124 0 190 37.5t87.5 101t21.5 224.5v706h-161v174h544v-174h-174v-727q0 -147 -12.5 -213.5t-67.5 -139t-155 -116t-243 -43.5q-158 0 -263 40.5t-158 108.5t-70.5 145t-17.5 239v706h-172v174h547v-174h-165z
M581 1473l141 317h276l-289 -317h-128z" />
    <glyph glyph-name="Ucircumflex" unicode="&#xdb;" horiz-adv-x="1386" 
d="M409 1217v-696q0 -162 16.5 -224t82.5 -105.5t170 -43.5q124 0 190 37.5t87.5 101t21.5 224.5v706h-161v174h544v-174h-174v-727q0 -147 -12.5 -213.5t-67.5 -139t-155 -116t-243 -43.5q-158 0 -263 40.5t-158 108.5t-70.5 145t-17.5 239v706h-172v174h547v-174h-165z
M690 1650l-165 -174h-135l168 312h267l173 -312h-141z" />
    <glyph glyph-name="Udieresis" unicode="&#xdc;" horiz-adv-x="1386" 
d="M409 1217v-696q0 -162 16.5 -224t82.5 -105.5t170 -43.5q124 0 190 37.5t87.5 101t21.5 224.5v706h-161v174h544v-174h-174v-727q0 -147 -12.5 -213.5t-67.5 -139t-155 -116t-243 -43.5q-158 0 -263 40.5t-158 108.5t-70.5 145t-17.5 239v706h-172v174h547v-174h-165z
M402 1617q0 45 32.5 78t78.5 33t78.5 -32.5t32.5 -78.5q0 -47 -32.5 -79t-78.5 -32q-45 0 -78 32.5t-33 78.5zM764 1617q0 44 31.5 77.5t79.5 33.5q46 0 78.5 -33t32.5 -78q0 -46 -32.5 -78.5t-78.5 -32.5q-47 0 -79 32.5t-32 78.5z" />
    <glyph glyph-name="Yacute" unicode="&#xdd;" horiz-adv-x="1323" 
d="M563 174v459l-414 584h-170v174h572v-174h-175l307 -429l280 429h-175v174h555v-174h-184l-386 -584v-459h190v-174h-587v174h187zM579 1473l141 317h276l-289 -317h-128z" />
    <glyph glyph-name="Thorn" unicode="&#xde;" 
d="M216 174v1043h-175v174h565v-174h-180v-92h112q219 0 328 -31t182.5 -140.5t73.5 -258.5q0 -119 -48.5 -213.5t-120 -139.5t-161 -60.5t-270.5 -15.5h-96v-92h180v-174h-565v174h175zM426 434h120q205 0 284 58.5t79 206.5q0 94 -42 156t-104 79t-207 17h-130v-517z" />
    <glyph glyph-name="germandbls" unicode="&#xdf;" horiz-adv-x="1323" 
d="M418 169h150v-169h-512v169h172v671q0 214 34.5 323t147.5 182.5t275 73.5q178 0 298 -90t120 -251q0 -190 -179 -279q149 -31 227.5 -140.5t78.5 -256.5q0 -189 -103.5 -303.5t-275.5 -114.5q-95 0 -173 38v160q62 -35 127 -35q102 0 163.5 70.5t61.5 186.5
q0 104 -48.5 172.5t-118 93.5t-185.5 28v157q106 0 166.5 58t60.5 146q0 87 -60 140.5t-158 53.5q-105 0 -166 -43.5t-82 -122.5t-21 -247v-671z" />
    <glyph glyph-name="agrave" unicode="&#xe0;" horiz-adv-x="1087" 
d="M1061 169v-169h-332v118q-138 -134 -308 -134q-132 0 -229.5 86t-97.5 220q0 135 103.5 224t249.5 89q136 0 263 -82v96q0 74 -14 114t-65.5 72t-134.5 32q-143 0 -207 -114l-182 48q121 226 418 226q109 0 188.5 -29.5t118.5 -76t52.5 -100.5t13.5 -172v-448h163z
M710 360q-123 96 -249 96q-79 0 -132 -46t-53 -119q0 -68 46.5 -114t126.5 -46q138 0 261 116v113zM708 1096h-128l-289 317h276z" />
    <glyph glyph-name="aacute" unicode="&#xe1;" horiz-adv-x="1087" 
d="M1061 169v-169h-332v118q-138 -134 -308 -134q-132 0 -229.5 86t-97.5 220q0 135 103.5 224t249.5 89q136 0 263 -82v96q0 74 -14 114t-65.5 72t-134.5 32q-143 0 -207 -114l-182 48q121 226 418 226q109 0 188.5 -29.5t118.5 -76t52.5 -100.5t13.5 -172v-448h163z
M710 360q-123 96 -249 96q-79 0 -132 -46t-53 -119q0 -68 46.5 -114t126.5 -46q138 0 261 116v113zM356 1096l141 317h276l-289 -317h-128z" />
    <glyph glyph-name="acircumflex" unicode="&#xe2;" horiz-adv-x="1087" 
d="M1061 169v-169h-332v118q-138 -134 -308 -134q-132 0 -229.5 86t-97.5 220q0 135 103.5 224t249.5 89q136 0 263 -82v96q0 74 -14 114t-65.5 72t-134.5 32q-143 0 -207 -114l-182 48q121 226 418 226q109 0 188.5 -29.5t118.5 -76t52.5 -100.5t13.5 -172v-448h163z
M710 360q-123 96 -249 96q-79 0 -132 -46t-53 -119q0 -68 46.5 -114t126.5 -46q138 0 261 116v113zM522 1273l-165 -174h-135l168 312h267l173 -312h-141z" />
    <glyph glyph-name="atilde" unicode="&#xe3;" horiz-adv-x="1087" 
d="M1061 169v-169h-332v118q-138 -134 -308 -134q-132 0 -229.5 86t-97.5 220q0 135 103.5 224t249.5 89q136 0 263 -82v96q0 74 -14 114t-65.5 72t-134.5 32q-143 0 -207 -114l-182 48q121 226 418 226q109 0 188.5 -29.5t118.5 -76t52.5 -100.5t13.5 -172v-448h163z
M710 360q-123 96 -249 96q-79 0 -132 -46t-53 -119q0 -68 46.5 -114t126.5 -46q138 0 261 116v113zM746 1391h112q-4 -154 -58.5 -216t-124.5 -62q-71 0 -181 67q-97 58 -127 58q-31 0 -44 -24.5t-13 -85.5h-115q1 144 54 206t128 62q60 0 184 -72q86 -51 114 -51
q67 0 71 118z" />
    <glyph glyph-name="adieresis" unicode="&#xe4;" horiz-adv-x="1087" 
d="M1061 169v-169h-332v118q-138 -134 -308 -134q-132 0 -229.5 86t-97.5 220q0 135 103.5 224t249.5 89q136 0 263 -82v96q0 74 -14 114t-65.5 72t-134.5 32q-143 0 -207 -114l-182 48q121 226 418 226q109 0 188.5 -29.5t118.5 -76t52.5 -100.5t13.5 -172v-448h163z
M710 360q-123 96 -249 96q-79 0 -132 -46t-53 -119q0 -68 46.5 -114t126.5 -46q138 0 261 116v113zM229 1255q0 45 32.5 78t78.5 33t78.5 -32.5t32.5 -78.5q0 -47 -32.5 -79t-78.5 -32q-45 0 -78 32.5t-33 78.5zM591 1255q0 44 31.5 77.5t79.5 33.5q46 0 78.5 -33t32.5 -78
q0 -46 -32.5 -78.5t-78.5 -32.5q-47 0 -79 32.5t-32 78.5z" />
    <glyph glyph-name="aring" unicode="&#xe5;" horiz-adv-x="1087" 
d="M1061 169v-169h-332v118q-138 -134 -308 -134q-132 0 -229.5 86t-97.5 220q0 135 103.5 224t249.5 89q136 0 263 -82v96q0 74 -14 114t-65.5 72t-134.5 32q-143 0 -207 -114l-182 48q121 226 418 226q109 0 188.5 -29.5t118.5 -76t52.5 -100.5t13.5 -172v-448h163z
M710 360q-123 96 -249 96q-79 0 -132 -46t-53 -119q0 -68 46.5 -114t126.5 -46q138 0 261 116v113zM322 1255q0 79 57 139t142 60q83 0 141 -58.5t58 -140.5t-58.5 -140.5t-140.5 -58.5q-85 0 -142 59.5t-57 139.5zM400 1255q0 -49 35 -85t86 -36q50 0 85.5 35.5t35.5 85.5
q0 49 -35.5 84.5t-85.5 35.5q-52 0 -86.5 -36t-34.5 -84z" />
    <glyph glyph-name="ae" unicode="&#xe6;" horiz-adv-x="1812" 
d="M1725 435h-786q9 -135 103.5 -217t216.5 -82q86 0 167 43.5t130 110.5l169 -75q-64 -111 -191.5 -177t-269.5 -66q-271 0 -432 208q-52 -77 -160.5 -142.5t-234.5 -65.5q-146 0 -249 82t-103 224q0 150 117 234.5t261 84.5q139 0 282 -81v100q0 82 -17.5 122t-69 68.5
t-135.5 28.5q-171 0 -243 -118l-184 51q130 227 447 227q238 0 345 -150q135 150 343 150q212 0 351.5 -158t142.5 -402zM1518 579q-22 120 -104.5 184.5t-186.5 64.5t-185.5 -68.5t-103.5 -180.5h580zM745 347q-121 95 -253 95q-89 0 -144.5 -46.5t-55.5 -118.5
q0 -68 54 -109t126 -41q156 0 273 123v97z" />
    <glyph glyph-name="ccedilla" unicode="&#xe7;" horiz-adv-x="1067" 
d="M597 -27l-13 -70q142 -35 142 -163q0 -80 -69 -138.5t-233 -58.5h-72v111q106 0 145 18t39 58q0 58 -97 58l35 191q-180 28 -291 176.5t-111 335.5q0 219 144 361.5t332 142.5q161 0 272 -95v68h170v-366h-170q-13 105 -85.5 161t-168.5 56q-128 0 -208 -90.5t-80 -237.5
q0 -137 76 -241.5t220 -104.5q200 0 290 190l157 -74q-122 -270 -424 -288z" />
    <glyph glyph-name="egrave" unicode="&#xe8;" 
d="M1098 436h-814q18 -134 106 -217t225 -83q199 0 315 160l168 -74q-82 -127 -213 -188.5t-274 -61.5q-222 0 -379.5 138.5t-157.5 373.5q0 223 153.5 367t352.5 144q195 0 353.5 -140.5t164.5 -418.5zM902 574q-20 102 -106 184.5t-211 82.5q-114 0 -195 -74.5t-99 -192.5
h611zM740 1096h-128l-289 317h276z" />
    <glyph glyph-name="eacute" unicode="&#xe9;" 
d="M1098 436h-814q18 -134 106 -217t225 -83q199 0 315 160l168 -74q-82 -127 -213 -188.5t-274 -61.5q-222 0 -379.5 138.5t-157.5 373.5q0 223 153.5 367t352.5 144q195 0 353.5 -140.5t164.5 -418.5zM902 574q-20 102 -106 184.5t-211 82.5q-114 0 -195 -74.5t-99 -192.5
h611zM438 1096l141 317h276l-289 -317h-128z" />
    <glyph glyph-name="ecircumflex" unicode="&#xea;" 
d="M1098 436h-814q18 -134 106 -217t225 -83q199 0 315 160l168 -74q-82 -127 -213 -188.5t-274 -61.5q-222 0 -379.5 138.5t-157.5 373.5q0 223 153.5 367t352.5 144q195 0 353.5 -140.5t164.5 -418.5zM902 574q-20 102 -106 184.5t-211 82.5q-114 0 -195 -74.5t-99 -192.5
h611zM582 1273l-165 -174h-135l168 312h267l173 -312h-141z" />
    <glyph glyph-name="edieresis" unicode="&#xeb;" 
d="M1098 436h-814q18 -134 106 -217t225 -83q199 0 315 160l168 -74q-82 -127 -213 -188.5t-274 -61.5q-222 0 -379.5 138.5t-157.5 373.5q0 223 153.5 367t352.5 144q195 0 353.5 -140.5t164.5 -418.5zM902 574q-20 102 -106 184.5t-211 82.5q-114 0 -195 -74.5t-99 -192.5
h611zM294 1255q0 45 32.5 78t78.5 33t78.5 -32.5t32.5 -78.5q0 -47 -32.5 -79t-78.5 -32q-45 0 -78 32.5t-33 78.5zM656 1255q0 44 31.5 77.5t79.5 33.5q46 0 78.5 -33t32.5 -78q0 -46 -32.5 -78.5t-78.5 -32.5q-47 0 -79 32.5t-32 78.5z" />
    <glyph glyph-name="igrave" unicode="&#xec;" horiz-adv-x="598" 
d="M217 169v630h-151v169h341v-799h149v-169h-490v169h151zM441 1096h-128l-289 317h276z" />
    <glyph glyph-name="iacute" unicode="&#xed;" horiz-adv-x="598" 
d="M217 169v630h-151v169h341v-799h149v-169h-490v169h151zM145 1096l141 317h276l-289 -317h-128z" />
    <glyph glyph-name="icircumflex" unicode="&#xee;" horiz-adv-x="598" 
d="M217 169v630h-151v169h341v-799h149v-169h-490v169h151zM296 1273l-165 -174h-135l168 312h267l173 -312h-141z" />
    <glyph glyph-name="idieresis" unicode="&#xef;" horiz-adv-x="598" 
d="M217 169v630h-151v169h341v-799h149v-169h-490v169h151zM8 1255q0 45 32.5 78t78.5 33t78.5 -32.5t32.5 -78.5q0 -47 -32.5 -79t-78.5 -32q-45 0 -78 32.5t-33 78.5zM370 1255q0 44 31.5 77.5t79.5 33.5q46 0 78.5 -33t32.5 -78q0 -46 -32.5 -78.5t-78.5 -32.5
q-47 0 -79 32.5t-32 78.5z" />
    <glyph glyph-name="eth" unicode="&#xf0;" 
d="M704 1317l178 74l33 -79l-148 -61q327 -366 327 -718q0 -243 -143 -402t-372 -159q-228 0 -364 157t-136 358q0 134 61 247t167 187t244 74q144 0 263 -89q-86 158 -197 282l-313 -131l-33 79l284 119q-54 56 -143 136h204q49 -37 88 -74zM581 813q-124 0 -213 -90.5
t-89 -243.5q0 -136 83.5 -230t219.5 -94q132 0 221 99t89 236q0 108 -52.5 184.5t-127.5 107.5t-131 31z" />
    <glyph glyph-name="ntilde" unicode="&#xf1;" 
d="M415 968v-117q183 132 334 132q94 0 155.5 -44.5t80.5 -109t19 -188.5v-472h163v-169h-353v633q0 110 -33 143.5t-81 33.5q-126 0 -285 -123v-518h167v-169h-527v169h170v630h-170v169h360zM831 1391h112q-4 -154 -58.5 -216t-124.5 -62q-71 0 -181 67q-97 58 -127 58
q-31 0 -44 -24.5t-13 -85.5h-115q1 144 54 206t128 62q60 0 184 -72q86 -51 114 -51q67 0 71 118z" />
    <glyph glyph-name="ograve" unicode="&#xf2;" 
d="M78 484q0 224 148 367.5t361 143.5q209 0 359 -141.5t150 -369.5t-149.5 -370t-359.5 -142q-216 0 -362.5 144t-146.5 368zM279 484q0 -143 89.5 -234.5t218.5 -91.5q131 0 219.5 92.5t88.5 233.5q0 142 -90 234t-218 92q-134 0 -221 -94t-87 -232zM723 1096h-128
l-289 317h276z" />
    <glyph glyph-name="oacute" unicode="&#xf3;" 
d="M78 484q0 224 148 367.5t361 143.5q209 0 359 -141.5t150 -369.5t-149.5 -370t-359.5 -142q-216 0 -362.5 144t-146.5 368zM279 484q0 -143 89.5 -234.5t218.5 -91.5q131 0 219.5 92.5t88.5 233.5q0 142 -90 234t-218 92q-134 0 -221 -94t-87 -232zM451 1096l141 317h276
l-289 -317h-128z" />
    <glyph glyph-name="ocircumflex" unicode="&#xf4;" 
d="M78 484q0 224 148 367.5t361 143.5q209 0 359 -141.5t150 -369.5t-149.5 -370t-359.5 -142q-216 0 -362.5 144t-146.5 368zM279 484q0 -143 89.5 -234.5t218.5 -91.5q131 0 219.5 92.5t88.5 233.5q0 142 -90 234t-218 92q-134 0 -221 -94t-87 -232zM583 1273l-165 -174
h-135l168 312h267l173 -312h-141z" />
    <glyph glyph-name="otilde" unicode="&#xf5;" 
d="M78 484q0 224 148 367.5t361 143.5q209 0 359 -141.5t150 -369.5t-149.5 -370t-359.5 -142q-216 0 -362.5 144t-146.5 368zM279 484q0 -143 89.5 -234.5t218.5 -91.5q131 0 219.5 92.5t88.5 233.5q0 142 -90 234t-218 92q-134 0 -221 -94t-87 -232zM807 1391h112
q-4 -154 -58.5 -216t-124.5 -62q-71 0 -181 67q-97 58 -127 58q-31 0 -44 -24.5t-13 -85.5h-115q1 144 54 206t128 62q60 0 184 -72q86 -51 114 -51q67 0 71 118z" />
    <glyph glyph-name="odieresis" unicode="&#xf6;" 
d="M78 484q0 224 148 367.5t361 143.5q209 0 359 -141.5t150 -369.5t-149.5 -370t-359.5 -142q-216 0 -362.5 144t-146.5 368zM279 484q0 -143 89.5 -234.5t218.5 -91.5q131 0 219.5 92.5t88.5 233.5q0 142 -90 234t-218 92q-134 0 -221 -94t-87 -232zM295 1255
q0 45 32.5 78t78.5 33t78.5 -32.5t32.5 -78.5q0 -47 -32.5 -79t-78.5 -32q-45 0 -78 32.5t-33 78.5zM657 1255q0 44 31.5 77.5t79.5 33.5q46 0 78.5 -33t32.5 -78q0 -46 -32.5 -78.5t-78.5 -32.5q-47 0 -79 32.5t-32 78.5z" />
    <glyph glyph-name="divide" unicode="&#xf7;" horiz-adv-x="1366" 
d="M683 1212q40 0 69 -28.5t29 -69.5t-29 -69t-69 -28t-69 28.5t-29 68.5q0 43 29.5 70.5t68.5 27.5zM135 774h1096v-157h-1096v157zM683 374q40 0 69 -28t29 -69t-29 -69.5t-69 -28.5t-69 28.5t-29 69.5t29 69t69 28z" />
    <glyph glyph-name="oslash" unicode="&#xf8;" 
d="M220 120q-142 146 -142 365q0 223 149 366.5t359 143.5q169 0 301 -93l97 114l66 -58l-96 -113q142 -144 142 -362q0 -224 -149 -367.5t-358 -143.5q-167 0 -300 91l-97 -114l-69 58zM349 271l412 484q-80 55 -174 55q-128 0 -218 -92t-90 -233q0 -125 70 -214zM826 694
l-411 -483q78 -53 173 -53q123 0 215 89.5t92 235.5q0 125 -69 211z" />
    <glyph glyph-name="ugrave" unicode="&#xf9;" horiz-adv-x="1153" 
d="M1133 169v-169h-357v111q-167 -127 -320 -127q-97 0 -160.5 42.5t-84.5 110t-21 217.5v445h-137v169h327v-590q0 -107 6 -144t35 -61t73 -24q132 0 282 126v524h-171v169h361v-799h167zM739 1096h-128l-289 317h276z" />
    <glyph glyph-name="uacute" unicode="&#xfa;" horiz-adv-x="1153" 
d="M1133 169v-169h-357v111q-167 -127 -320 -127q-97 0 -160.5 42.5t-84.5 110t-21 217.5v445h-137v169h327v-590q0 -107 6 -144t35 -61t73 -24q132 0 282 126v524h-171v169h361v-799h167zM433 1096l141 317h276l-289 -317h-128z" />
    <glyph glyph-name="ucircumflex" unicode="&#xfb;" horiz-adv-x="1153" 
d="M1133 169v-169h-357v111q-167 -127 -320 -127q-97 0 -160.5 42.5t-84.5 110t-21 217.5v445h-137v169h327v-590q0 -107 6 -144t35 -61t73 -24q132 0 282 126v524h-171v169h361v-799h167zM589 1273l-165 -174h-135l168 312h267l173 -312h-141z" />
    <glyph glyph-name="udieresis" unicode="&#xfc;" horiz-adv-x="1153" 
d="M1133 169v-169h-357v111q-167 -127 -320 -127q-97 0 -160.5 42.5t-84.5 110t-21 217.5v445h-137v169h327v-590q0 -107 6 -144t35 -61t73 -24q132 0 282 126v524h-171v169h361v-799h167zM301 1255q0 45 32.5 78t78.5 33t78.5 -32.5t32.5 -78.5q0 -47 -32.5 -79t-78.5 -32
q-45 0 -78 32.5t-33 78.5zM663 1255q0 44 31.5 77.5t79.5 33.5q46 0 78.5 -33t32.5 -78q0 -46 -32.5 -78.5t-78.5 -32.5q-47 0 -79 32.5t-32 78.5z" />
    <glyph glyph-name="yacute" unicode="&#xfd;" horiz-adv-x="1153" 
d="M496 17l-318 782h-161v169h479v-169h-116l209 -536l205 536h-128v169h469v-169h-144l-479 -1233h-321v166h189zM462 1096l141 317h276l-289 -317h-128z" />
    <glyph glyph-name="thorn" unicode="&#xfe;" horiz-adv-x="1280" 
d="M191 -265v1487h-163v169h353v-575q142 167 344 167q204 0 337.5 -140t133.5 -364q0 -235 -145 -371t-330 -136q-192 0 -340 148v-385h188v-169h-555v169h177zM378 470q0 -80 33 -153t105 -122.5t169 -49.5q136 0 224.5 91t88.5 250q0 155 -92.5 242t-210.5 87
q-126 0 -221.5 -94.5t-95.5 -250.5z" />
    <glyph glyph-name="ydieresis" unicode="&#xff;" horiz-adv-x="1153" 
d="M496 17l-318 782h-161v169h479v-169h-116l209 -536l205 536h-128v169h469v-169h-144l-479 -1233h-321v166h189zM296 1255q0 45 32.5 78t78.5 33t78.5 -32.5t32.5 -78.5q0 -47 -32.5 -79t-78.5 -32q-45 0 -78 32.5t-33 78.5zM658 1255q0 44 31.5 77.5t79.5 33.5
q46 0 78.5 -33t32.5 -78q0 -46 -32.5 -78.5t-78.5 -32.5q-47 0 -79 32.5t-32 78.5z" />
    <glyph glyph-name="dotlessi" unicode="&#x131;" horiz-adv-x="598" 
d="M217 169v630h-151v169h341v-799h149v-169h-490v169h151z" />
    <glyph glyph-name="OE" unicode="&#x152;" horiz-adv-x="2091" 
d="M1256 1217v-409h515v-174h-515v-460h596v251h171v-425h-1054q-247 0 -356.5 18t-239.5 104.5t-210.5 237.5t-80.5 322q0 178 73.5 330t183 233.5t234.5 113.5t348 32h1102v-419h-171v245h-596zM1046 1217h-182q-142 0 -227 -20t-167 -81t-130.5 -170.5t-48.5 -249.5
q0 -183 76.5 -306t199 -169.5t323.5 -46.5h156v1043z" />
    <glyph glyph-name="oe" unicode="&#x153;" horiz-adv-x="1942" 
d="M1862 435h-800q6 -120 93.5 -208t221.5 -88q188 0 318 159l167 -72q-82 -134 -215.5 -194t-266.5 -60q-263 0 -417 197q-139 -197 -384 -197q-210 0 -358 143.5t-148 369.5q0 145 68.5 261.5t189.5 182.5t242 66q232 0 390 -196q144 196 388 196q213 0 362 -158t149 -402
zM1648 579q-22 114 -108 180.5t-194 66.5q-103 0 -180.5 -64t-98.5 -183h581zM279 481q0 -144 86 -234.5t213 -90.5q130 0 212.5 94t82.5 237q0 158 -97 237t-203 79q-125 0 -209.5 -91t-84.5 -231z" />
    <glyph glyph-name="Scaron" unicode="&#x160;" horiz-adv-x="1087" 
d="M71 0v505h174v-123q125 -227 327 -227q103 0 174 63t71 165q0 99 -58 142.5t-219 86.5q-187 50 -277 94.5t-143.5 127t-53.5 195.5q0 175 116.5 279.5t292.5 104.5q167 0 310 -108v93h170v-422h-170v97q-107 161 -295 161q-114 0 -175 -52.5t-61 -125.5q0 -56 31 -98.5
t79 -62.5t189 -56q184 -48 267 -89.5t143 -138.5t60 -223q0 -178 -125.5 -294t-310.5 -116q-190 0 -342 137v-115h-174zM525 1613l166 175h134l-168 -312h-266l-174 312h141z" />
    <glyph glyph-name="scaron" unicode="&#x161;" horiz-adv-x="938" 
d="M84 0v332h170v-32q9 -68 73.5 -112t152.5 -44q92 0 147 32t55 89q0 55 -45.5 81t-180.5 48q-200 34 -285.5 109.5t-85.5 195.5q0 121 93 202.5t245 81.5q137 0 236 -56v41h169v-321h-169v59q-77 119 -224 119q-75 0 -123.5 -32.5t-48.5 -86.5q0 -55 44.5 -75.5
t191.5 -43.5q141 -22 213 -51.5t119.5 -98t47.5 -159.5q0 -135 -103.5 -214.5t-268.5 -79.5q-155 0 -253 70v-54h-170zM485 1236l166 175h134l-168 -312h-266l-174 312h141z" />
    <glyph glyph-name="Ydieresis" unicode="&#x178;" horiz-adv-x="1323" 
d="M563 174v459l-414 584h-170v174h572v-174h-175l307 -429l280 429h-175v174h555v-174h-184l-386 -584v-459h190v-174h-587v174h187zM369 1617q0 45 32.5 78t78.5 33t78.5 -32.5t32.5 -78.5q0 -47 -32.5 -79t-78.5 -32q-45 0 -78 32.5t-33 78.5zM731 1617q0 44 31.5 77.5
t79.5 33.5q46 0 78.5 -33t32.5 -78q0 -46 -32.5 -78.5t-78.5 -32.5q-47 0 -79 32.5t-32 78.5z" />
    <glyph glyph-name="florin" unicode="&#x192;" horiz-adv-x="1130" 
d="M46 -405l35 155q100 -22 152 -22q53 0 82 28t46 124l177 1042h-201l24 140h201l24 133q23 123 52 178.5t88 87t140 31.5q84 0 219 -38l-35 -153q-100 24 -154 24q-64 0 -88.5 -32.5t-42.5 -127.5l-19 -103h204l-25 -140h-204l-191 -1092q-26 -147 -87 -204t-167 -57
q-100 0 -230 26z" />
    <glyph glyph-name="circumflex" unicode="&#x2c6;" horiz-adv-x="682" 
d="M337 1273l-165 -174h-135l168 312h267l173 -312h-141z" />
    <glyph glyph-name="caron" unicode="&#x2c7;" horiz-adv-x="682" 
d="M345 1236l166 175h134l-168 -312h-266l-174 312h141z" />
    <glyph glyph-name="macron" unicode="&#x2c9;" horiz-adv-x="682" 
d="M49 1167v159h584v-159h-584z" />
    <glyph glyph-name="breve" unicode="&#x2d8;" horiz-adv-x="682" 
d="M33 1397h143q24 -145 165 -145q143 0 166 145h143q-10 -125 -95 -205t-214 -80t-213.5 80t-94.5 205z" />
    <glyph glyph-name="dotaccent" unicode="&#x2d9;" horiz-adv-x="682" 
d="M227 1255q0 47 33.5 80.5t81.5 33.5q47 0 80.5 -33.5t33.5 -80.5q0 -48 -33.5 -81.5t-80.5 -33.5q-49 0 -82 34.5t-33 80.5z" />
    <glyph glyph-name="ring" unicode="&#x2da;" horiz-adv-x="682" 
d="M142 1255q0 79 57 139t142 60q83 0 141 -58.5t58 -140.5t-58.5 -140.5t-140.5 -58.5q-85 0 -142 59.5t-57 139.5zM220 1255q0 -49 35 -85t86 -36q50 0 85.5 35.5t35.5 85.5q0 49 -35.5 84.5t-85.5 35.5q-52 0 -86.5 -36t-34.5 -84z" />
    <glyph glyph-name="ogonek" unicode="&#x2db;" horiz-adv-x="682" 
d="M215 0h160q-40 -72 -40 -144q0 -130 111 -130q41 0 82 20v-134q-90 -44 -168 -44q-91 0 -148 58t-57 153q0 89 60 221z" />
    <glyph glyph-name="tilde" unicode="&#x2dc;" horiz-adv-x="682" 
d="M561 1391h112q-4 -154 -58.5 -216t-124.5 -62q-71 0 -181 67q-97 58 -127 58q-31 0 -44 -24.5t-13 -85.5h-115q1 144 54 206t128 62q60 0 184 -72q86 -51 114 -51q67 0 71 118z" />
    <glyph glyph-name="hungarumlaut" unicode="&#x2dd;" horiz-adv-x="682" 
d="M-39 1096l141 317h276l-289 -317h-128zM303 1096l141 317h276l-289 -317h-128z" />
    <glyph glyph-name="pi1" unicode="&#x3c0;" horiz-adv-x="1280" 
d="M51 1063h1179v-158h-159v-905h-189v905h-484v-905h-188v905h-159v158z" />
    <glyph glyph-name="endash" unicode="&#x2013;" horiz-adv-x="1024" 
d="M-12 601h1048v-177h-1048v177z" />
    <glyph glyph-name="emdash" unicode="&#x2014;" horiz-adv-x="2048" 
d="M-12 601h2072v-177h-2072v177z" />
    <glyph glyph-name="quoteleft" unicode="&#x2018;" horiz-adv-x="598" 
d="M422 1114v-246h-246v214q0 109 17 169t72 98.5t157 41.5v-104q-120 -18 -120 -149v-24h120z" />
    <glyph glyph-name="quoteright" unicode="&#x2019;" horiz-adv-x="598" 
d="M176 1145v246h246v-213q0 -110 -17 -170t-72.5 -98t-156.5 -42v105q120 18 120 148q0 8 -1 24h-119z" />
    <glyph glyph-name="quotesinglbase" unicode="&#x201a;" horiz-adv-x="598" 
d="M176 0v246h246v-214q0 -109 -17 -169t-72.5 -98.5t-156.5 -41.5v104q120 18 120 149q0 8 -1 24h-119z" />
    <glyph glyph-name="quotedblleft" unicode="&#x201c;" horiz-adv-x="1067" 
d="M410 1114v-246h-246v214q0 109 17 169t72 98.5t157 41.5v-104q-120 -18 -120 -149v-24h120zM904 1114v-246h-245v214q0 109 16.5 169t72 98.5t156.5 41.5v-104q-120 -18 -120 -149q0 -8 1 -24h119z" />
    <glyph glyph-name="quotedblright" unicode="&#x201d;" horiz-adv-x="1067" 
d="M163 1145v246h246v-213q0 -110 -17 -170t-72.5 -98t-156.5 -42v105q120 18 120 148q0 8 -1 24h-119zM658 1145v246h245v-213q0 -110 -17 -170t-72 -98t-156 -42v105q120 18 120 148q0 8 -1 24h-119z" />
    <glyph glyph-name="quotedblbase" unicode="&#x201e;" horiz-adv-x="1067" 
d="M163 0v246h246v-214q0 -109 -17 -169t-72.5 -98.5t-156.5 -41.5v104q120 18 120 149q0 8 -1 24h-119zM658 0v246h245v-214q0 -109 -17 -169t-72 -98.5t-156 -41.5v104q120 18 120 149q0 8 -1 24h-119z" />
    <glyph glyph-name="dagger" unicode="&#x2020;" horiz-adv-x="1067" 
d="M431 1413h210v-230q-66 -118 -69 -276q163 3 260 61h188v-192h-188q-97 58 -243 58h-17q0 -174 69 -283v-241l-69 -755h-76l-65 755v241q63 114 65 283q-153 -1 -256 -58h-193v192h193q113 -61 256 -61q0 186 -65 276v230z" />
    <glyph glyph-name="daggerdbl" unicode="&#x2021;" horiz-adv-x="1067" 
d="M429 1413h210v-228q-62 -108 -69 -244q158 9 238 58h178v-186h-178q-101 52 -238 55q14 -199 99 -374q-89 -182 -99 -382q154 5 238 57h178v-184h-178q-78 45 -238 54q13 -143 69 -236v-237h-210v237q50 89 66 236q-130 0 -230 -54h-185v184h185q74 -45 230 -57
q-11 220 -90 382q75 152 90 374q-136 -3 -230 -55h-185v186h185q91 -51 230 -58q-8 153 -66 244v228z" />
    <glyph glyph-name="bullet" unicode="&#x2022;" horiz-adv-x="725" 
d="M364 946q101 0 176 -71.5t75 -179.5q0 -103 -74 -176.5t-177 -73.5q-104 0 -177.5 73.5t-73.5 176.5q0 104 74 177.5t177 73.5z" />
    <glyph glyph-name="ellipsis" unicode="&#x2026;" horiz-adv-x="2048" 
d="M219 0v246h246v-246h-246zM902 0v246h245v-246h-245zM1584 0v246h246v-246h-246z" />
    <glyph glyph-name="perthousand" unicode="&#x2030;" horiz-adv-x="2218" 
d="M56 1040q0 167 75 270t222 103q137 0 217 -97t80 -276q0 -170 -76.5 -271t-220.5 -101q-137 0 -217 96.5t-80 275.5zM200 1041q0 -277 153 -277q152 0 152 276q0 277 -152 277q-153 0 -153 -276zM120 0l1103 1391h142l-1095 -1391h-150zM823 351q0 180 80.5 276t216.5 96
q137 0 217 -97t80 -275q0 -180 -80.5 -276.5t-216.5 -96.5q-146 0 -221.5 102.5t-75.5 270.5zM968 351q0 -277 152 -277q153 0 153 276q0 277 -153 277q-152 0 -152 -276zM1571 351q0 180 80.5 276t216.5 96q137 0 217 -97t80 -275q0 -180 -80.5 -276.5t-216.5 -96.5
q-146 0 -221.5 102.5t-75.5 270.5zM1716 351q0 -277 152 -277q153 0 153 276q0 277 -153 277q-152 0 -152 -276z" />
    <glyph glyph-name="guilsinglleft" unicode="&#x2039;" horiz-adv-x="598" 
d="M55 484l303 484h194l-292 -484l292 -484h-194z" />
    <glyph glyph-name="guilsinglright" unicode="&#x203a;" horiz-adv-x="598" 
d="M542 484l-303 -484h-194l292 484l-292 484h194z" />
    <glyph glyph-name="Euro" unicode="&#x20ac;" horiz-adv-x="1110" 
d="M352 764l-2 -64l2 -65h369v-152h-354q48 -338 303 -338q83 0 146 73.5t89 191.5l182 -80q-32 -161 -144.5 -257t-287.5 -96q-436 0 -499 506h-131v152h118v59q0 49 2 70h-120v151h131q58 498 495 498q148 0 217 -96v86h181v-414h-181q-15 122 -73.5 191t-145.5 69
q-127 0 -196 -80.5t-91 -253.5h359v-151h-369z" />
    <glyph glyph-name="trademark" unicode="&#x2122;" horiz-adv-x="2048" 
d="M494 577v693h-264v121h666v-121h-266v-693h-136zM987 577v814h200l206 -651l199 651h196v-814h-124v683l-210 -683h-123l-219 693v-693h-125z" />
    <glyph glyph-name="Ohm" unicode="&#x2126;" horiz-adv-x="1621" 
d="M504 160q-346 201 -346 651q0 178 74.5 340t224.5 257t359 95q298 0 472.5 -200t174.5 -500q0 -416 -344 -643l367 6v-166h-578v177q165 75 256 241t91 359q0 232 -111 397.5t-330 165.5q-224 0 -334 -164.5t-110 -389.5q0 -223 93 -381.5t249 -224.5v-180h-577v168z" />
    <glyph glyph-name="partialdiff" unicode="&#x2202;" horiz-adv-x="1012" 
d="M426 1138l-135 60q64 150 163.5 221.5t196.5 71.5q148 0 235 -139t87 -426q0 -251 -73 -473.5t-223.5 -350t-314.5 -127.5q-135 0 -220.5 91.5t-85.5 254.5q0 169 92 311t272.5 216t437.5 76q-2 250 -57 344.5t-148 94.5q-143 0 -227 -225zM854 796q-241 -12 -357.5 -67
t-188.5 -179t-72 -247q0 -88 53.5 -139.5t116.5 -51.5q144 0 279 169.5t169 514.5z" />
    <glyph glyph-name="increment" unicode="&#x2206;" horiz-adv-x="1259" 
d="M1229 0h-1200l628 1387zM993 82l-399 967l-440 -967h839z" />
    <glyph glyph-name="product" unicode="&#x220f;" horiz-adv-x="1686" 
d="M162 1419h1362v-1875h-191v1701h-980v-1701h-191v1875z" />
    <glyph glyph-name="summation" unicode="&#x2211;" horiz-adv-x="1460" 
d="M139 1419h1237v-164h-988l607 -752l-649 -795h1040v-164h-1264v190l620 762l-603 747v176z" />
    <glyph glyph-name="fraction" unicode="&#x2215;" horiz-adv-x="618" 
d="M-303 0l1104 1389h120l-1103 -1389h-121z" />
    <glyph glyph-name="periodcentered" unicode="&#x2219;" horiz-adv-x="598" 
d="M176 573v245h246v-245h-246z" />
    <glyph glyph-name="radical" unicode="&#x221a;" horiz-adv-x="1131" 
d="M1053 1869h74l-312 -1947l-496 1021l-198 -91l-34 64l301 151l405 -823z" />
    <glyph glyph-name="infinity" unicode="&#x221e;" horiz-adv-x="1195" 
d="M556 791q117 150 187 191.5t146 41.5q110 0 199 -78.5t89 -242.5q0 -168 -84 -252t-204 -84q-88 0 -157.5 49.5t-175.5 183.5q-136 -171 -288 -171q-112 0 -179.5 82.5t-67.5 184.5q0 93 63.5 180t183.5 87q152 0 288 -172zM625 697q82 -128 141.5 -173t119.5 -45
q69 0 124.5 50.5t55.5 163.5q0 104 -51.5 161t-131.5 57q-56 0 -108 -40t-150 -174zM487 696q-122 157 -220 157q-61 0 -98 -43t-37 -111t39 -112.5t98 -44.5q100 0 218 154z" />
    <glyph glyph-name="integral" unicode="&#x222b;" horiz-adv-x="555" 
d="M198 608q0 574 53 744.5t183 170.5q46 0 84.5 -29.5t38.5 -78.5q0 -43 -25 -73t-67 -30q-35 0 -76 35q-23 20 -40 20q-40 0 -40 -63q0 -42 9 -145q37 -410 37 -683q0 -637 -46.5 -836.5t-192.5 -199.5q-56 0 -87.5 33.5t-31.5 87.5q0 43 25 71t65 28t70 -33
q28 -31 48 -31q39 0 39 61q0 41 -9 120q-37 316 -37 831z" />
    <glyph glyph-name="approxequal" unicode="&#x2248;" horiz-adv-x="1366" 
d="M1231 901q-155 -128 -293 -128q-61 0 -119 18t-193 81q-127 60 -193 60q-135 0 -298 -141v169q157 129 305 129q93 0 293 -94q136 -64 204 -64q133 0 294 139v-169zM1231 431q-155 -128 -293 -128q-61 0 -119 17.5t-193 80.5q-127 60 -193 60q-135 0 -298 -140v169
q157 128 305 128q93 0 293 -94q136 -64 204 -64q129 0 294 140v-169z" />
    <glyph glyph-name="notequal" unicode="&#x2260;" horiz-adv-x="1366" 
d="M873 1009h358v-157h-419l-123 -313h542v-157h-603l-207 -528h-135l206 528h-357v157h419l123 313h-542v157h603l207 528h135z" />
    <glyph glyph-name="lessequal" unicode="&#x2264;" horiz-adv-x="1366" 
d="M1231 368l-1096 460v141l1096 460v-170l-882 -361l882 -360v-170zM135 119h1096v-157h-1096v157z" />
    <glyph glyph-name="greaterequal" unicode="&#x2265;" horiz-adv-x="1366" 
d="M135 1429l1096 -460v-141l-1096 -460v170l882 360l-882 361v170zM135 119h1096v-157h-1096v157z" />
    <glyph glyph-name="lozenge" unicode="&#x25ca;" horiz-adv-x="1012" 
d="M548 1422l418 -713l-418 -709h-111l-391 709l391 713h111zM494 1325l-340 -616l340 -615l359 615z" />
    <glyph glyph-name="fi" unicode="&#xf001;" 
d="M723 1192l-170 -23q-9 95 -75 95q-45 0 -60 -39.5t-15 -157.5v-99h587v-799h154v-169h-495v169h151v630h-397v-630h150v-169h-492v169h152v630h-152v169h152v99q0 216 81 284t180 68q111 0 174 -68t75 -159zM899 1410q46 0 80.5 -32.5t34.5 -81.5q0 -48 -34 -82t-81 -34
q-48 0 -81.5 34t-33.5 82q0 49 34 81.5t81 32.5z" />
    <glyph glyph-name="fl" unicode="&#xf002;" 
d="M62 169h146v630h-146v169h146v84q0 200 70.5 283.5t181.5 83.5q54 0 123 -28h404v-1222h156v-169h-496v169h150v1053h-250q-34 37 -66 37q-40 0 -61.5 -37.5t-21.5 -159.5v-94h167v-169h-167v-630h149v-169h-485v169z" />
    <hkern u1="&#x20;" u2="&#x201c;" k="164" />
    <hkern u1="&#x20;" u2="&#x2018;" k="164" />
    <hkern u1="&#x20;" u2="Y" k="205" />
    <hkern u1="&#x20;" u2="W" k="164" />
    <hkern u1="&#x20;" u2="V" k="164" />
    <hkern u1="&#x20;" u2="T" k="82" />
    <hkern u1="&#x2c;" u2="&#x201d;" k="246" />
    <hkern u1="&#x2c;" u2="&#x2019;" k="246" />
    <hkern u1="&#x2c;" u2="&#x20;" k="164" />
    <hkern u1="&#x2e;" u2="&#x201d;" k="246" />
    <hkern u1="&#x2e;" u2="&#x2019;" k="246" />
    <hkern u1="&#x2e;" u2="&#x20;" k="164" />
    <hkern u1="&#x3a;" u2="&#x20;" k="164" />
    <hkern u1="&#x3b;" u2="&#x20;" k="164" />
    <hkern u1="A" u2="y" k="82" />
    <hkern u1="A" u2="w" k="20" />
    <hkern u1="A" u2="v" k="123" />
    <hkern u1="A" u2="Y" k="102" />
    <hkern u1="A" u2="W" k="82" />
    <hkern u1="A" u2="V" k="123" />
    <hkern u1="A" u2="U" k="51" />
    <hkern u1="A" u2="T" k="41" />
    <hkern u1="A" u2="Q" k="82" />
    <hkern u1="A" u2="O" k="61" />
    <hkern u1="A" u2="G" k="61" />
    <hkern u1="A" u2="C" k="41" />
    <hkern u1="B" u2="U" k="41" />
    <hkern u1="B" u2="&#x2e;" k="41" />
    <hkern u1="B" u2="&#x2c;" k="41" />
    <hkern u1="C" u2="A" k="51" />
    <hkern u1="C" u2="&#x2e;" k="82" />
    <hkern u1="C" u2="&#x2c;" k="82" />
    <hkern u1="D" u2="Y" k="143" />
    <hkern u1="D" u2="W" k="143" />
    <hkern u1="D" u2="V" k="143" />
    <hkern u1="D" u2="A" k="20" />
    <hkern u1="D" u2="&#x2e;" k="123" />
    <hkern u1="D" u2="&#x2c;" k="123" />
    <hkern u1="F" u2="o" k="164" />
    <hkern u1="F" u2="e" k="164" />
    <hkern u1="F" u2="a" k="164" />
    <hkern u1="F" u2="A" k="184" />
    <hkern u1="F" u2="&#x2e;" k="287" />
    <hkern u1="F" u2="&#x2c;" k="287" />
    <hkern u1="G" u2="&#x2e;" k="123" />
    <hkern u1="G" u2="&#x2c;" k="123" />
    <hkern u1="J" u2="u" k="31" />
    <hkern u1="J" u2="o" k="82" />
    <hkern u1="J" u2="e" k="82" />
    <hkern u1="J" u2="a" k="72" />
    <hkern u1="J" u2="A" k="20" />
    <hkern u1="J" u2="&#x2e;" k="61" />
    <hkern u1="J" u2="&#x2c;" k="61" />
    <hkern u1="K" u2="y" k="164" />
    <hkern u1="K" u2="u" k="41" />
    <hkern u1="K" u2="o" k="41" />
    <hkern u1="K" u2="e" k="51" />
    <hkern u1="K" u2="O" k="82" />
    <hkern u1="L" u2="&#x201d;" k="154" />
    <hkern u1="L" u2="&#x2019;" k="154" />
    <hkern u1="L" u2="y" k="41" />
    <hkern u1="L" u2="Y" k="154" />
    <hkern u1="L" u2="W" k="154" />
    <hkern u1="L" u2="V" k="205" />
    <hkern u1="N" u2="A" k="31" />
    <hkern u1="N" u2="&#x2e;" k="82" />
    <hkern u1="N" u2="&#x2c;" k="82" />
    <hkern u1="O" u2="Y" k="154" />
    <hkern u1="O" u2="X" k="154" />
    <hkern u1="O" u2="W" k="143" />
    <hkern u1="O" u2="V" k="143" />
    <hkern u1="O" u2="A" k="123" />
    <hkern u1="O" u2="&#x2e;" k="164" />
    <hkern u1="O" u2="&#x2c;" k="164" />
    <hkern u1="P" u2="o" k="61" />
    <hkern u1="P" u2="e" k="61" />
    <hkern u1="P" u2="a" k="41" />
    <hkern u1="P" u2="A" k="154" />
    <hkern u1="P" u2="&#x2e;" k="287" />
    <hkern u1="P" u2="&#x2c;" k="287" />
    <hkern u1="Q" u2="U" k="61" />
    <hkern u1="Q" u2="&#x2e;" k="184" />
    <hkern u1="Q" u2="&#x2c;" k="184" />
    <hkern u1="R" u2="Y" k="41" />
    <hkern u1="R" u2="W" k="41" />
    <hkern u1="R" u2="V" k="41" />
    <hkern u1="R" u2="O" k="41" />
    <hkern u1="S" u2="&#x2e;" k="51" />
    <hkern u1="S" u2="&#x2c;" k="51" />
    <hkern u1="T" u2="o" k="123" />
    <hkern u1="T" u2="h" k="-31" />
    <hkern u1="T" u2="e" k="102" />
    <hkern u1="T" u2="a" k="61" />
    <hkern u1="T" u2="O" k="31" />
    <hkern u1="T" u2="A" k="51" />
    <hkern u1="T" u2="&#x2e;" k="164" />
    <hkern u1="T" u2="&#x2d;" k="256" />
    <hkern u1="T" u2="&#x2c;" k="164" />
    <hkern u1="U" u2="A" k="51" />
    <hkern u1="U" u2="&#x2e;" k="154" />
    <hkern u1="U" u2="&#x2c;" k="154" />
    <hkern u1="V" u2="u" k="102" />
    <hkern u1="V" u2="o" k="225" />
    <hkern u1="V" u2="e" k="225" />
    <hkern u1="V" u2="a" k="225" />
    <hkern u1="V" u2="O" k="102" />
    <hkern u1="V" u2="G" k="102" />
    <hkern u1="V" u2="A" k="123" />
    <hkern u1="V" u2="&#x3b;" k="72" />
    <hkern u1="V" u2="&#x3a;" k="72" />
    <hkern u1="V" u2="&#x2e;" k="369" />
    <hkern u1="V" u2="&#x2d;" k="246" />
    <hkern u1="V" u2="&#x2c;" k="369" />
    <hkern u1="W" u2="y" k="102" />
    <hkern u1="W" u2="u" k="113" />
    <hkern u1="W" u2="o" k="184" />
    <hkern u1="W" u2="e" k="184" />
    <hkern u1="W" u2="a" k="184" />
    <hkern u1="W" u2="O" k="102" />
    <hkern u1="W" u2="A" k="82" />
    <hkern u1="W" u2="&#x3b;" k="72" />
    <hkern u1="W" u2="&#x3a;" k="72" />
    <hkern u1="W" u2="&#x2e;" k="328" />
    <hkern u1="W" u2="&#x2d;" k="174" />
    <hkern u1="W" u2="&#x2c;" k="328" />
    <hkern u1="Y" u2="u" k="164" />
    <hkern u1="Y" u2="o" k="246" />
    <hkern u1="Y" u2="e" k="236" />
    <hkern u1="Y" u2="a" k="256" />
    <hkern u1="Y" u2="O" k="154" />
    <hkern u1="Y" u2="A" k="102" />
    <hkern u1="Y" u2="&#x3b;" k="72" />
    <hkern u1="Y" u2="&#x3a;" k="72" />
    <hkern u1="Y" u2="&#x2e;" k="246" />
    <hkern u1="Y" u2="&#x2d;" k="256" />
    <hkern u1="Y" u2="&#x2c;" k="246" />
    <hkern u1="a" u2="y" k="41" />
    <hkern u1="a" u2="w" k="41" />
    <hkern u1="a" u2="v" k="41" />
    <hkern u1="b" u2="y" k="82" />
    <hkern u1="b" u2="v" k="82" />
    <hkern u1="b" u2="u" k="20" />
    <hkern u1="b" u2="l" k="41" />
    <hkern u1="b" u2="b" k="41" />
    <hkern u1="b" u2="&#x2e;" k="123" />
    <hkern u1="b" u2="&#x2c;" k="123" />
    <hkern u1="d" u2="y" k="51" />
    <hkern u1="d" u2="w" k="20" />
    <hkern u1="d" u2="v" k="20" />
    <hkern u1="e" u2="y" k="82" />
    <hkern u1="e" u2="x" k="20" />
    <hkern u1="e" u2="w" k="41" />
    <hkern u1="e" u2="v" k="72" />
    <hkern u1="e" u2="b" k="31" />
    <hkern u1="e" u2="&#x2e;" k="41" />
    <hkern u1="e" u2="&#x2c;" k="41" />
    <hkern u1="f" u2="&#x201d;" k="-82" />
    <hkern u1="f" u2="&#x2019;" k="-82" />
    <hkern u1="f" u2="&#x131;" k="-20" />
    <hkern u1="f" u2="o" k="-41" />
    <hkern u1="f" u2="l" k="-20" />
    <hkern u1="f" u2="i" k="-20" />
    <hkern u1="f" u2="f" k="-20" />
    <hkern u1="f" u2="e" k="-51" />
    <hkern u1="f" u2="a" k="-51" />
    <hkern u1="f" u2="&#x2e;" k="-82" />
    <hkern u1="f" u2="&#x2c;" k="-82" />
    <hkern u1="g" u2="y" k="61" />
    <hkern u1="g" u2="o" k="41" />
    <hkern u1="g" u2="g" k="20" />
    <hkern u1="g" u2="e" k="41" />
    <hkern u1="g" u2="a" k="31" />
    <hkern u1="g" u2="&#x2e;" k="82" />
    <hkern u1="g" u2="&#x2c;" k="82" />
    <hkern u1="h" u2="y" k="61" />
    <hkern u1="i" u2="v" k="41" />
    <hkern u1="k" u2="y" k="41" />
    <hkern u1="k" u2="o" k="61" />
    <hkern u1="k" u2="e" k="61" />
    <hkern u1="l" u2="y" k="41" />
    <hkern u1="l" u2="w" k="31" />
    <hkern u1="m" u2="y" k="41" />
    <hkern u1="n" u2="y" k="61" />
    <hkern u1="n" u2="v" k="51" />
    <hkern u1="n" u2="u" k="20" />
    <hkern u1="o" u2="y" k="102" />
    <hkern u1="o" u2="x" k="82" />
    <hkern u1="o" u2="w" k="92" />
    <hkern u1="o" u2="v" k="82" />
    <hkern u1="o" u2="&#x2e;" k="102" />
    <hkern u1="o" u2="&#x2c;" k="102" />
    <hkern u1="p" u2="y" k="61" />
    <hkern u1="p" u2="&#x2e;" k="82" />
    <hkern u1="p" u2="&#x2c;" k="82" />
    <hkern u1="r" u2="y" k="-31" />
    <hkern u1="r" u2="v" k="-31" />
    <hkern u1="r" u2="u" k="-31" />
    <hkern u1="r" u2="t" k="-31" />
    <hkern u1="r" u2="r" k="-31" />
    <hkern u1="r" u2="q" k="61" />
    <hkern u1="r" u2="p" k="-31" />
    <hkern u1="r" u2="o" k="82" />
    <hkern u1="r" u2="n" k="-61" />
    <hkern u1="r" u2="l" k="41" />
    <hkern u1="r" u2="k" k="41" />
    <hkern u1="r" u2="i" k="-41" />
    <hkern u1="r" u2="g" k="61" />
    <hkern u1="r" u2="e" k="102" />
    <hkern u1="r" u2="d" k="82" />
    <hkern u1="r" u2="c" k="82" />
    <hkern u1="r" u2="a" k="51" />
    <hkern u1="r" u2="&#x2e;" k="123" />
    <hkern u1="r" u2="&#x2c;" k="123" />
    <hkern u1="v" u2="o" k="72" />
    <hkern u1="v" u2="e" k="51" />
    <hkern u1="v" u2="a" k="31" />
    <hkern u1="v" u2="&#x2e;" k="205" />
    <hkern u1="v" u2="&#x2c;" k="205" />
    <hkern u1="w" u2="o" k="72" />
    <hkern u1="w" u2="h" k="41" />
    <hkern u1="w" u2="e" k="51" />
    <hkern u1="w" u2="a" k="31" />
    <hkern u1="w" u2="&#x2e;" k="164" />
    <hkern u1="w" u2="&#x2c;" k="164" />
    <hkern u1="x" u2="e" k="82" />
    <hkern u1="y" u2="o" k="102" />
    <hkern u1="y" u2="e" k="102" />
    <hkern u1="y" u2="a" k="41" />
    <hkern u1="y" u2="&#x2e;" k="205" />
    <hkern u1="y" u2="&#x2c;" k="205" />
    <hkern u1="z" u2="o" k="31" />
    <hkern u1="z" u2="e" k="20" />
    <hkern u1="&#x2018;" u2="&#x2018;" k="102" />
    <hkern u1="&#x2019;" u2="&#x2019;" k="102" />
    <hkern u1="&#x2019;" u2="v" k="41" />
    <hkern u1="&#x2019;" u2="t" k="82" />
    <hkern u1="&#x2019;" u2="s" k="225" />
    <hkern u1="&#x2019;" u2="r" k="82" />
    <hkern u1="&#x2019;" u2="d" k="256" />
    <hkern u1="&#x2019;" u2="&#x20;" k="164" />
    <hkern u1="&#x201d;" u2="&#x20;" k="164" />
  </font>
</defs></svg>
